^C:\USERS\PRESE\DESKTOP\TEST\TASKSYSTEM\TASKSYSTEM\WORKER.CPP
/c /Zi /nologo /W3 /WX- /diagnostics:column /sdl /O2 /Oi /GL /D NDEBUG /D _CONSOLE /D _UNICODE /D UNICODE /Gm- /EHsc /MD /GS /Gy /fp:precise /permissive- /Zc:wchar_t /Zc:forScope /Zc:inline /Fo"X64\RELEASE\\" /Fd"X64\RELEASE\VC142.PDB" /Gd /TP /FC C:\USERS\PRESE\DESKTOP\TEST\TASKSYSTEM\TASKSYSTEM\WORKER.CPP
^C:\USERS\PRESE\DESKTOP\TEST\TASKSYSTEM\TASKSYSTEM\TASK.CPP
/c /Zi /nologo /W3 /WX- /diagnostics:column /sdl /O2 /Oi /GL /D NDEBUG /D _CONSOLE /D _UNICODE /D UNICODE /Gm- /EHsc /MD /GS /Gy /fp:precise /permissive- /Zc:wchar_t /Zc:forScope /Zc:inline /Fo"X64\RELEASE\\" /Fd"X64\RELEASE\VC142.PDB" /Gd /TP /FC C:\USERS\PRESE\DESKTOP\TEST\TASKSYSTEM\TASKSYSTEM\TASK.CPP
^C:\USERS\PRESE\DESKTOP\TEST\TASKSYSTEM\TASKSYSTEM\DATABASECONNECTION.CPP
/c /Zi /nologo /W3 /WX- /diagnostics:column /sdl /O2 /Oi /GL /D NDEBUG /D _CONSOLE /D _UNICODE /D UNICODE /Gm- /EHsc /MD /GS /Gy /fp:precise /permissive- /Zc:wchar_t /Zc:forScope /Zc:inline /Fo"X64\RELEASE\\" /Fd"X64\RELEASE\VC142.PDB" /Gd /TP /FC C:\USERS\PRESE\DESKTOP\TEST\TASKSYSTEM\TASKSYSTEM\DATABASECONNECTION.CPP
^C:\USERS\PRESE\DESKTOP\TEST\TASKSYSTEM\TASKSYSTEM\TASKSYSTEM.CPP
/c /Zi /nologo /W3 /WX- /diagnostics:column /sdl /O2 /Oi /GL /D NDEBUG /D _CONSOLE /D _UNICODE /D UNICODE /Gm- /EHsc /MD /GS /Gy /fp:precise /permissive- /Zc:wchar_t /Zc:forScope /Zc:inline /Fo"X64\RELEASE\\" /Fd"X64\RELEASE\VC142.PDB" /Gd /TP /FC C:\USERS\PRESE\DESKTOP\TEST\TASKSYSTEM\TASKSYSTEM\TASKSYSTEM.CPP
^C:\USERS\PRESE\DESKTOP\TEST\TASKSYSTEM\TASKSYSTEM\MYWIDGET.CPP
/c /Zi /nologo /W3 /WX- /diagnostics:column /sdl /O2 /Oi /GL /D NDEBUG /D _CONSOLE /D _UNICODE /D UNICODE /Gm- /EHsc /MD /GS /Gy /fp:precise /permissive- /Zc:wchar_t /Zc:forScope /Zc:inline /Fo"X64\RELEASE\\" /Fd"X64\RELEASE\VC142.PDB" /Gd /TP /FC C:\USERS\PRESE\DESKTOP\TEST\TASKSYSTEM\TASKSYSTEM\MYWIDGET.CPP
