^C:\USERS\PRESE\DESKTOP\TEST\TASKSYSTEM\TASKSYSTEM\WORKER.CPP
C:\USERS\PRESE\DESKTOP\TEST\TASKSYSTEM\TASKSYSTEM\WORKER.H
^C:\USERS\PRESE\DESKTOP\TEST\TASKSYSTEM\TASKSYSTEM\TASK.CPP
C:\WINDOWS\GLOBALIZATION\SORTING\SORTDEFAULT.NLS
C:\PROGRAM FILES (X86)\MICROSOFT VISUAL STUDIO\2019\COMMUNITY\VC\TOOLS\MSVC\14.28.29333\BIN\HOSTX86\X64\1049\CLUI.DLL
C:\WINDOWS\SYSTEM32\TZRES.DLL
C:\USERS\PRESE\DESKTOP\TEST\TASKSYSTEM\TASKSYSTEM\TASK.H
C:\PROGRAM FILES (X86)\MICROSOFT VISUAL STUDIO\2019\COMMUNITY\VC\TOOLS\MSVC\14.28.29333\INCLUDE\CTIME
C:\PROGRAM FILES (X86)\MICROSOFT VISUAL STUDIO\2019\COMMUNITY\VC\TOOLS\MSVC\14.28.29333\INCLUDE\YVALS.H
C:\PROGRAM FILES (X86)\MICROSOFT VISUAL STUDIO\2019\COMMUNITY\VC\TOOLS\MSVC\14.28.29333\INCLUDE\YVALS_CORE.H
C:\PROGRAM FILES (X86)\MICROSOFT VISUAL STUDIO\2019\COMMUNITY\VC\TOOLS\MSVC\14.28.29333\INCLUDE\VCRUNTIME.H
C:\PROGRAM FILES (X86)\MICROSOFT VISUAL STUDIO\2019\COMMUNITY\VC\TOOLS\MSVC\14.28.29333\INCLUDE\SAL.H
C:\PROGRAM FILES (X86)\MICROSOFT VISUAL STUDIO\2019\COMMUNITY\VC\TOOLS\MSVC\14.28.29333\INCLUDE\CONCURRENCYSAL.H
C:\PROGRAM FILES (X86)\MICROSOFT VISUAL STUDIO\2019\COMMUNITY\VC\TOOLS\MSVC\14.28.29333\INCLUDE\VADEFS.H
C:\PROGRAM FILES (X86)\MICROSOFT VISUAL STUDIO\2019\COMMUNITY\VC\TOOLS\MSVC\14.28.29333\INCLUDE\XKEYCHECK.H
C:\PROGRAM FILES (X86)\WINDOWS KITS\10\INCLUDE\10.0.18362.0\UCRT\CRTDBG.H
C:\PROGRAM FILES (X86)\WINDOWS KITS\10\INCLUDE\10.0.18362.0\UCRT\CORECRT.H
C:\PROGRAM FILES (X86)\MICROSOFT VISUAL STUDIO\2019\COMMUNITY\VC\TOOLS\MSVC\14.28.29333\INCLUDE\VCRUNTIME_NEW_DEBUG.H
C:\PROGRAM FILES (X86)\MICROSOFT VISUAL STUDIO\2019\COMMUNITY\VC\TOOLS\MSVC\14.28.29333\INCLUDE\VCRUNTIME_NEW.H
C:\PROGRAM FILES (X86)\MICROSOFT VISUAL STUDIO\2019\COMMUNITY\VC\TOOLS\MSVC\14.28.29333\INCLUDE\CRTDEFS.H
C:\PROGRAM FILES (X86)\MICROSOFT VISUAL STUDIO\2019\COMMUNITY\VC\TOOLS\MSVC\14.28.29333\INCLUDE\USE_ANSI.H
C:\PROGRAM FILES (X86)\WINDOWS KITS\10\INCLUDE\10.0.18362.0\UCRT\TIME.H
C:\PROGRAM FILES (X86)\WINDOWS KITS\10\INCLUDE\10.0.18362.0\UCRT\CORECRT_WTIME.H
C:\PROGRAM FILES (X86)\MICROSOFT VISUAL STUDIO\2019\COMMUNITY\VC\TOOLS\MSVC\14.28.29333\INCLUDE\CSTRING
C:\PROGRAM FILES (X86)\WINDOWS KITS\10\INCLUDE\10.0.18362.0\UCRT\STRING.H
C:\PROGRAM FILES (X86)\WINDOWS KITS\10\INCLUDE\10.0.18362.0\UCRT\CORECRT_MEMORY.H
C:\PROGRAM FILES (X86)\WINDOWS KITS\10\INCLUDE\10.0.18362.0\UCRT\CORECRT_MEMCPY_S.H
C:\PROGRAM FILES (X86)\WINDOWS KITS\10\INCLUDE\10.0.18362.0\UCRT\ERRNO.H
C:\PROGRAM FILES (X86)\MICROSOFT VISUAL STUDIO\2019\COMMUNITY\VC\TOOLS\MSVC\14.28.29333\INCLUDE\VCRUNTIME_STRING.H
C:\PROGRAM FILES (X86)\WINDOWS KITS\10\INCLUDE\10.0.18362.0\UCRT\CORECRT_WSTRING.H
^C:\USERS\PRESE\DESKTOP\TEST\TASKSYSTEM\TASKSYSTEM\DATABASECONNECTION.CPP
C:\WINDOWS\GLOBALIZATION\SORTING\SORTDEFAULT.NLS
C:\PROGRAM FILES (X86)\MICROSOFT VISUAL STUDIO\2019\COMMUNITY\VC\TOOLS\MSVC\14.28.29333\BIN\HOSTX86\X64\1049\CLUI.DLL
C:\WINDOWS\SYSTEM32\TZRES.DLL
C:\USERS\PRESE\DESKTOP\TEST\TASKSYSTEM\TASKSYSTEM\DATABASECONNECTION.H
C:\PROGRAM FILES (X86)\MICROSOFT VISUAL STUDIO\2019\COMMUNITY\VC\TOOLS\MSVC\14.28.29333\INCLUDE\IOSTREAM
C:\PROGRAM FILES (X86)\MICROSOFT VISUAL STUDIO\2019\COMMUNITY\VC\TOOLS\MSVC\14.28.29333\INCLUDE\YVALS_CORE.H
C:\PROGRAM FILES (X86)\MICROSOFT VISUAL STUDIO\2019\COMMUNITY\VC\TOOLS\MSVC\14.28.29333\INCLUDE\VCRUNTIME.H
C:\PROGRAM FILES (X86)\MICROSOFT VISUAL STUDIO\2019\COMMUNITY\VC\TOOLS\MSVC\14.28.29333\INCLUDE\SAL.H
C:\PROGRAM FILES (X86)\MICROSOFT VISUAL STUDIO\2019\COMMUNITY\VC\TOOLS\MSVC\14.28.29333\INCLUDE\CONCURRENCYSAL.H
C:\PROGRAM FILES (X86)\MICROSOFT VISUAL STUDIO\2019\COMMUNITY\VC\TOOLS\MSVC\14.28.29333\INCLUDE\VADEFS.H
C:\PROGRAM FILES (X86)\MICROSOFT VISUAL STUDIO\2019\COMMUNITY\VC\TOOLS\MSVC\14.28.29333\INCLUDE\XKEYCHECK.H
C:\PROGRAM FILES (X86)\MICROSOFT VISUAL STUDIO\2019\COMMUNITY\VC\TOOLS\MSVC\14.28.29333\INCLUDE\ISTREAM
C:\PROGRAM FILES (X86)\MICROSOFT VISUAL STUDIO\2019\COMMUNITY\VC\TOOLS\MSVC\14.28.29333\INCLUDE\OSTREAM
C:\PROGRAM FILES (X86)\MICROSOFT VISUAL STUDIO\2019\COMMUNITY\VC\TOOLS\MSVC\14.28.29333\INCLUDE\IOS
C:\PROGRAM FILES (X86)\MICROSOFT VISUAL STUDIO\2019\COMMUNITY\VC\TOOLS\MSVC\14.28.29333\INCLUDE\XLOCNUM
C:\PROGRAM FILES (X86)\MICROSOFT VISUAL STUDIO\2019\COMMUNITY\VC\TOOLS\MSVC\14.28.29333\INCLUDE\CLIMITS
C:\PROGRAM FILES (X86)\MICROSOFT VISUAL STUDIO\2019\COMMUNITY\VC\TOOLS\MSVC\14.28.29333\INCLUDE\LIMITS.H
C:\PROGRAM FILES (X86)\MICROSOFT VISUAL STUDIO\2019\COMMUNITY\VC\TOOLS\MSVC\14.28.29333\INCLUDE\CMATH
C:\PROGRAM FILES (X86)\MICROSOFT VISUAL STUDIO\2019\COMMUNITY\VC\TOOLS\MSVC\14.28.29333\INCLUDE\YVALS.H
C:\PROGRAM FILES (X86)\WINDOWS KITS\10\INCLUDE\10.0.18362.0\UCRT\CRTDBG.H
C:\PROGRAM FILES (X86)\WINDOWS KITS\10\INCLUDE\10.0.18362.0\UCRT\CORECRT.H
C:\PROGRAM FILES (X86)\MICROSOFT VISUAL STUDIO\2019\COMMUNITY\VC\TOOLS\MSVC\14.28.29333\INCLUDE\VCRUNTIME_NEW_DEBUG.H
C:\PROGRAM FILES (X86)\MICROSOFT VISUAL STUDIO\2019\COMMUNITY\VC\TOOLS\MSVC\14.28.29333\INCLUDE\VCRUNTIME_NEW.H
C:\PROGRAM FILES (X86)\MICROSOFT VISUAL STUDIO\2019\COMMUNITY\VC\TOOLS\MSVC\14.28.29333\INCLUDE\CRTDEFS.H
C:\PROGRAM FILES (X86)\MICROSOFT VISUAL STUDIO\2019\COMMUNITY\VC\TOOLS\MSVC\14.28.29333\INCLUDE\USE_ANSI.H
C:\PROGRAM FILES (X86)\MICROSOFT VISUAL STUDIO\2019\COMMUNITY\VC\TOOLS\MSVC\14.28.29333\INCLUDE\CSTDLIB
C:\PROGRAM FILES (X86)\WINDOWS KITS\10\INCLUDE\10.0.18362.0\UCRT\MATH.H
C:\PROGRAM FILES (X86)\WINDOWS KITS\10\INCLUDE\10.0.18362.0\UCRT\CORECRT_MATH.H
C:\PROGRAM FILES (X86)\WINDOWS KITS\10\INCLUDE\10.0.18362.0\UCRT\STDLIB.H
C:\PROGRAM FILES (X86)\WINDOWS KITS\10\INCLUDE\10.0.18362.0\UCRT\CORECRT_MALLOC.H
C:\PROGRAM FILES (X86)\WINDOWS KITS\10\INCLUDE\10.0.18362.0\UCRT\CORECRT_SEARCH.H
C:\PROGRAM FILES (X86)\WINDOWS KITS\10\INCLUDE\10.0.18362.0\UCRT\STDDEF.H
C:\PROGRAM FILES (X86)\WINDOWS KITS\10\INCLUDE\10.0.18362.0\UCRT\CORECRT_WSTDLIB.H
C:\PROGRAM FILES (X86)\MICROSOFT VISUAL STUDIO\2019\COMMUNITY\VC\TOOLS\MSVC\14.28.29333\INCLUDE\XTR1COMMON
C:\PROGRAM FILES (X86)\MICROSOFT VISUAL STUDIO\2019\COMMUNITY\VC\TOOLS\MSVC\14.28.29333\INCLUDE\CSTDIO
C:\PROGRAM FILES (X86)\WINDOWS KITS\10\INCLUDE\10.0.18362.0\UCRT\STDIO.H
C:\PROGRAM FILES (X86)\WINDOWS KITS\10\INCLUDE\10.0.18362.0\UCRT\CORECRT_WSTDIO.H
C:\PROGRAM FILES (X86)\WINDOWS KITS\10\INCLUDE\10.0.18362.0\UCRT\CORECRT_STDIO_CONFIG.H
C:\PROGRAM FILES (X86)\MICROSOFT VISUAL STUDIO\2019\COMMUNITY\VC\TOOLS\MSVC\14.28.29333\INCLUDE\ITERATOR
C:\PROGRAM FILES (X86)\MICROSOFT VISUAL STUDIO\2019\COMMUNITY\VC\TOOLS\MSVC\14.28.29333\INCLUDE\IOSFWD
C:\PROGRAM FILES (X86)\MICROSOFT VISUAL STUDIO\2019\COMMUNITY\VC\TOOLS\MSVC\14.28.29333\INCLUDE\CSTRING
C:\PROGRAM FILES (X86)\WINDOWS KITS\10\INCLUDE\10.0.18362.0\UCRT\STRING.H
C:\PROGRAM FILES (X86)\WINDOWS KITS\10\INCLUDE\10.0.18362.0\UCRT\CORECRT_MEMORY.H
C:\PROGRAM FILES (X86)\WINDOWS KITS\10\INCLUDE\10.0.18362.0\UCRT\CORECRT_MEMCPY_S.H
C:\PROGRAM FILES (X86)\WINDOWS KITS\10\INCLUDE\10.0.18362.0\UCRT\ERRNO.H
C:\PROGRAM FILES (X86)\MICROSOFT VISUAL STUDIO\2019\COMMUNITY\VC\TOOLS\MSVC\14.28.29333\INCLUDE\VCRUNTIME_STRING.H
C:\PROGRAM FILES (X86)\WINDOWS KITS\10\INCLUDE\10.0.18362.0\UCRT\CORECRT_WSTRING.H
C:\PROGRAM FILES (X86)\MICROSOFT VISUAL STUDIO\2019\COMMUNITY\VC\TOOLS\MSVC\14.28.29333\INCLUDE\CWCHAR
C:\PROGRAM FILES (X86)\WINDOWS KITS\10\INCLUDE\10.0.18362.0\UCRT\WCHAR.H
C:\PROGRAM FILES (X86)\WINDOWS KITS\10\INCLUDE\10.0.18362.0\UCRT\CORECRT_WCONIO.H
C:\PROGRAM FILES (X86)\WINDOWS KITS\10\INCLUDE\10.0.18362.0\UCRT\CORECRT_WCTYPE.H
C:\PROGRAM FILES (X86)\WINDOWS KITS\10\INCLUDE\10.0.18362.0\UCRT\CORECRT_WDIRECT.H
C:\PROGRAM FILES (X86)\WINDOWS KITS\10\INCLUDE\10.0.18362.0\UCRT\CORECRT_WIO.H
C:\PROGRAM FILES (X86)\WINDOWS KITS\10\INCLUDE\10.0.18362.0\UCRT\CORECRT_SHARE.H
C:\PROGRAM FILES (X86)\WINDOWS KITS\10\INCLUDE\10.0.18362.0\UCRT\CORECRT_WPROCESS.H
C:\PROGRAM FILES (X86)\WINDOWS KITS\10\INCLUDE\10.0.18362.0\UCRT\CORECRT_WTIME.H
C:\PROGRAM FILES (X86)\WINDOWS KITS\10\INCLUDE\10.0.18362.0\UCRT\SYS\STAT.H
C:\PROGRAM FILES (X86)\WINDOWS KITS\10\INCLUDE\10.0.18362.0\UCRT\SYS\TYPES.H
C:\PROGRAM FILES (X86)\MICROSOFT VISUAL STUDIO\2019\COMMUNITY\VC\TOOLS\MSVC\14.28.29333\INCLUDE\XSTDDEF
C:\PROGRAM FILES (X86)\MICROSOFT VISUAL STUDIO\2019\COMMUNITY\VC\TOOLS\MSVC\14.28.29333\INCLUDE\CSTDDEF
C:\PROGRAM FILES (X86)\MICROSOFT VISUAL STUDIO\2019\COMMUNITY\VC\TOOLS\MSVC\14.28.29333\INCLUDE\INITIALIZER_LIST
C:\PROGRAM FILES (X86)\MICROSOFT VISUAL STUDIO\2019\COMMUNITY\VC\TOOLS\MSVC\14.28.29333\INCLUDE\XUTILITY
C:\PROGRAM FILES (X86)\MICROSOFT VISUAL STUDIO\2019\COMMUNITY\VC\TOOLS\MSVC\14.28.29333\INCLUDE\UTILITY
C:\PROGRAM FILES (X86)\MICROSOFT VISUAL STUDIO\2019\COMMUNITY\VC\TOOLS\MSVC\14.28.29333\INCLUDE\TYPE_TRAITS
C:\PROGRAM FILES (X86)\MICROSOFT VISUAL STUDIO\2019\COMMUNITY\VC\TOOLS\MSVC\14.28.29333\INCLUDE\STREAMBUF
C:\PROGRAM FILES (X86)\MICROSOFT VISUAL STUDIO\2019\COMMUNITY\VC\TOOLS\MSVC\14.28.29333\INCLUDE\XIOSBASE
C:\PROGRAM FILES (X86)\WINDOWS KITS\10\INCLUDE\10.0.18362.0\UCRT\SHARE.H
C:\PROGRAM FILES (X86)\MICROSOFT VISUAL STUDIO\2019\COMMUNITY\VC\TOOLS\MSVC\14.28.29333\INCLUDE\SYSTEM_ERROR
C:\PROGRAM FILES (X86)\MICROSOFT VISUAL STUDIO\2019\COMMUNITY\VC\TOOLS\MSVC\14.28.29333\INCLUDE\__MSVC_SYSTEM_ERROR_ABI.HPP
C:\PROGRAM FILES (X86)\MICROSOFT VISUAL STUDIO\2019\COMMUNITY\VC\TOOLS\MSVC\14.28.29333\INCLUDE\CERRNO
C:\PROGRAM FILES (X86)\MICROSOFT VISUAL STUDIO\2019\COMMUNITY\VC\TOOLS\MSVC\14.28.29333\INCLUDE\STDEXCEPT
C:\PROGRAM FILES (X86)\MICROSOFT VISUAL STUDIO\2019\COMMUNITY\VC\TOOLS\MSVC\14.28.29333\INCLUDE\EXCEPTION
C:\PROGRAM FILES (X86)\WINDOWS KITS\10\INCLUDE\10.0.18362.0\UCRT\MALLOC.H
C:\PROGRAM FILES (X86)\MICROSOFT VISUAL STUDIO\2019\COMMUNITY\VC\TOOLS\MSVC\14.28.29333\INCLUDE\VCRUNTIME_EXCEPTION.H
C:\PROGRAM FILES (X86)\MICROSOFT VISUAL STUDIO\2019\COMMUNITY\VC\TOOLS\MSVC\14.28.29333\INCLUDE\EH.H
C:\PROGRAM FILES (X86)\WINDOWS KITS\10\INCLUDE\10.0.18362.0\UCRT\CORECRT_TERMINATE.H
C:\PROGRAM FILES (X86)\MICROSOFT VISUAL STUDIO\2019\COMMUNITY\VC\TOOLS\MSVC\14.28.29333\INCLUDE\XSTRING
C:\PROGRAM FILES (X86)\MICROSOFT VISUAL STUDIO\2019\COMMUNITY\VC\TOOLS\MSVC\14.28.29333\INCLUDE\XMEMORY
C:\PROGRAM FILES (X86)\MICROSOFT VISUAL STUDIO\2019\COMMUNITY\VC\TOOLS\MSVC\14.28.29333\INCLUDE\CSTDINT
C:\PROGRAM FILES (X86)\MICROSOFT VISUAL STUDIO\2019\COMMUNITY\VC\TOOLS\MSVC\14.28.29333\INCLUDE\STDINT.H
C:\PROGRAM FILES (X86)\MICROSOFT VISUAL STUDIO\2019\COMMUNITY\VC\TOOLS\MSVC\14.28.29333\INCLUDE\LIMITS
C:\PROGRAM FILES (X86)\MICROSOFT VISUAL STUDIO\2019\COMMUNITY\VC\TOOLS\MSVC\14.28.29333\INCLUDE\CFLOAT
C:\PROGRAM FILES (X86)\WINDOWS KITS\10\INCLUDE\10.0.18362.0\UCRT\FLOAT.H
C:\PROGRAM FILES (X86)\MICROSOFT VISUAL STUDIO\2019\COMMUNITY\VC\TOOLS\MSVC\14.28.29333\INCLUDE\INTRIN0.H
C:\PROGRAM FILES (X86)\MICROSOFT VISUAL STUDIO\2019\COMMUNITY\VC\TOOLS\MSVC\14.28.29333\INCLUDE\ISA_AVAILABILITY.H
C:\PROGRAM FILES (X86)\MICROSOFT VISUAL STUDIO\2019\COMMUNITY\VC\TOOLS\MSVC\14.28.29333\INCLUDE\NEW
C:\PROGRAM FILES (X86)\MICROSOFT VISUAL STUDIO\2019\COMMUNITY\VC\TOOLS\MSVC\14.28.29333\INCLUDE\XATOMIC.H
C:\PROGRAM FILES (X86)\MICROSOFT VISUAL STUDIO\2019\COMMUNITY\VC\TOOLS\MSVC\14.28.29333\INCLUDE\XCALL_ONCE.H
C:\PROGRAM FILES (X86)\MICROSOFT VISUAL STUDIO\2019\COMMUNITY\VC\TOOLS\MSVC\14.28.29333\INCLUDE\XERRC.H
C:\PROGRAM FILES (X86)\MICROSOFT VISUAL STUDIO\2019\COMMUNITY\VC\TOOLS\MSVC\14.28.29333\INCLUDE\ATOMIC
C:\PROGRAM FILES (X86)\MICROSOFT VISUAL STUDIO\2019\COMMUNITY\VC\TOOLS\MSVC\14.28.29333\INCLUDE\XTHREADS.H
C:\PROGRAM FILES (X86)\MICROSOFT VISUAL STUDIO\2019\COMMUNITY\VC\TOOLS\MSVC\14.28.29333\INCLUDE\XTIMEC.H
C:\PROGRAM FILES (X86)\WINDOWS KITS\10\INCLUDE\10.0.18362.0\UCRT\TIME.H
C:\PROGRAM FILES (X86)\MICROSOFT VISUAL STUDIO\2019\COMMUNITY\VC\TOOLS\MSVC\14.28.29333\INCLUDE\XLOCALE
C:\PROGRAM FILES (X86)\MICROSOFT VISUAL STUDIO\2019\COMMUNITY\VC\TOOLS\MSVC\14.28.29333\INCLUDE\MEMORY
C:\PROGRAM FILES (X86)\MICROSOFT VISUAL STUDIO\2019\COMMUNITY\VC\TOOLS\MSVC\14.28.29333\INCLUDE\TYPEINFO
C:\PROGRAM FILES (X86)\MICROSOFT VISUAL STUDIO\2019\COMMUNITY\VC\TOOLS\MSVC\14.28.29333\INCLUDE\VCRUNTIME_TYPEINFO.H
C:\PROGRAM FILES (X86)\MICROSOFT VISUAL STUDIO\2019\COMMUNITY\VC\TOOLS\MSVC\14.28.29333\INCLUDE\XFACET
C:\PROGRAM FILES (X86)\MICROSOFT VISUAL STUDIO\2019\COMMUNITY\VC\TOOLS\MSVC\14.28.29333\INCLUDE\XLOCINFO
C:\PROGRAM FILES (X86)\MICROSOFT VISUAL STUDIO\2019\COMMUNITY\VC\TOOLS\MSVC\14.28.29333\INCLUDE\XLOCINFO.H
C:\PROGRAM FILES (X86)\WINDOWS KITS\10\INCLUDE\10.0.18362.0\UCRT\CTYPE.H
C:\PROGRAM FILES (X86)\WINDOWS KITS\10\INCLUDE\10.0.18362.0\UCRT\LOCALE.H
C:\PROGRAM FILES\POSTGRESQL\13\INCLUDE\LIBPQ-FE.H
C:\PROGRAM FILES\POSTGRESQL\13\INCLUDE\POSTGRES_EXT.H
C:\PROGRAM FILES\POSTGRESQL\13\INCLUDE\PG_CONFIG_EXT.H
C:\PROGRAM FILES (X86)\MICROSOFT VISUAL STUDIO\2019\COMMUNITY\VC\TOOLS\MSVC\14.28.29333\INCLUDE\STRING
C:\PROGRAM FILES (X86)\MICROSOFT VISUAL STUDIO\2019\COMMUNITY\VC\TOOLS\MSVC\14.28.29333\INCLUDE\CCTYPE
C:\PROGRAM FILES (X86)\MICROSOFT VISUAL STUDIO\2019\COMMUNITY\VC\TOOLS\MSVC\14.28.29333\INCLUDE\VECTOR
C:\USERS\PRESE\DESKTOP\TEST\TASKSYSTEM\TASKSYSTEM\TASK.H
C:\PROGRAM FILES (X86)\MICROSOFT VISUAL STUDIO\2019\COMMUNITY\VC\TOOLS\MSVC\14.28.29333\INCLUDE\CTIME
C:\USERS\PRESE\DESKTOP\TEST\TASKSYSTEM\TASKSYSTEM\WORKER.H
C:\PROGRAM FILES (X86)\MICROSOFT VISUAL STUDIO\2019\COMMUNITY\VC\TOOLS\MSVC\14.28.29333\INCLUDE\FSTREAM
C:\PROGRAM FILES (X86)\MICROSOFT VISUAL STUDIO\2019\COMMUNITY\VC\TOOLS\MSVC\14.28.29333\INCLUDE\IOMANIP
C:\PROGRAM FILES (X86)\MICROSOFT VISUAL STUDIO\2019\COMMUNITY\VC\TOOLS\MSVC\14.28.29333\INCLUDE\XLOCMON
C:\PROGRAM FILES (X86)\MICROSOFT VISUAL STUDIO\2019\COMMUNITY\VC\TOOLS\MSVC\14.28.29333\INCLUDE\XLOCTIME
^C:\USERS\PRESE\DESKTOP\TEST\TASKSYSTEM\TASKSYSTEM\TASKSYSTEM.CPP
C:\PROGRAM FILES (X86)\MICROSOFT VISUAL STUDIO\2019\COMMUNITY\VC\TOOLS\MSVC\14.28.29333\INCLUDE\IOSTREAM
C:\PROGRAM FILES (X86)\MICROSOFT VISUAL STUDIO\2019\COMMUNITY\VC\TOOLS\MSVC\14.28.29333\INCLUDE\YVALS_CORE.H
C:\PROGRAM FILES (X86)\MICROSOFT VISUAL STUDIO\2019\COMMUNITY\VC\TOOLS\MSVC\14.28.29333\INCLUDE\VCRUNTIME.H
C:\PROGRAM FILES (X86)\MICROSOFT VISUAL STUDIO\2019\COMMUNITY\VC\TOOLS\MSVC\14.28.29333\INCLUDE\SAL.H
C:\PROGRAM FILES (X86)\MICROSOFT VISUAL STUDIO\2019\COMMUNITY\VC\TOOLS\MSVC\14.28.29333\INCLUDE\CONCURRENCYSAL.H
C:\PROGRAM FILES (X86)\MICROSOFT VISUAL STUDIO\2019\COMMUNITY\VC\TOOLS\MSVC\14.28.29333\INCLUDE\VADEFS.H
C:\PROGRAM FILES (X86)\MICROSOFT VISUAL STUDIO\2019\COMMUNITY\VC\TOOLS\MSVC\14.28.29333\INCLUDE\XKEYCHECK.H
C:\PROGRAM FILES (X86)\MICROSOFT VISUAL STUDIO\2019\COMMUNITY\VC\TOOLS\MSVC\14.28.29333\INCLUDE\ISTREAM
C:\PROGRAM FILES (X86)\MICROSOFT VISUAL STUDIO\2019\COMMUNITY\VC\TOOLS\MSVC\14.28.29333\INCLUDE\OSTREAM
C:\PROGRAM FILES (X86)\MICROSOFT VISUAL STUDIO\2019\COMMUNITY\VC\TOOLS\MSVC\14.28.29333\INCLUDE\IOS
C:\PROGRAM FILES (X86)\MICROSOFT VISUAL STUDIO\2019\COMMUNITY\VC\TOOLS\MSVC\14.28.29333\INCLUDE\XLOCNUM
C:\PROGRAM FILES (X86)\MICROSOFT VISUAL STUDIO\2019\COMMUNITY\VC\TOOLS\MSVC\14.28.29333\INCLUDE\CLIMITS
C:\PROGRAM FILES (X86)\MICROSOFT VISUAL STUDIO\2019\COMMUNITY\VC\TOOLS\MSVC\14.28.29333\INCLUDE\LIMITS.H
C:\PROGRAM FILES (X86)\MICROSOFT VISUAL STUDIO\2019\COMMUNITY\VC\TOOLS\MSVC\14.28.29333\INCLUDE\CMATH
C:\PROGRAM FILES (X86)\MICROSOFT VISUAL STUDIO\2019\COMMUNITY\VC\TOOLS\MSVC\14.28.29333\INCLUDE\YVALS.H
C:\PROGRAM FILES (X86)\WINDOWS KITS\10\INCLUDE\10.0.18362.0\UCRT\CRTDBG.H
C:\PROGRAM FILES (X86)\WINDOWS KITS\10\INCLUDE\10.0.18362.0\UCRT\CORECRT.H
C:\PROGRAM FILES (X86)\MICROSOFT VISUAL STUDIO\2019\COMMUNITY\VC\TOOLS\MSVC\14.28.29333\INCLUDE\VCRUNTIME_NEW_DEBUG.H
C:\PROGRAM FILES (X86)\MICROSOFT VISUAL STUDIO\2019\COMMUNITY\VC\TOOLS\MSVC\14.28.29333\INCLUDE\VCRUNTIME_NEW.H
C:\PROGRAM FILES (X86)\MICROSOFT VISUAL STUDIO\2019\COMMUNITY\VC\TOOLS\MSVC\14.28.29333\INCLUDE\CRTDEFS.H
C:\PROGRAM FILES (X86)\MICROSOFT VISUAL STUDIO\2019\COMMUNITY\VC\TOOLS\MSVC\14.28.29333\INCLUDE\USE_ANSI.H
C:\PROGRAM FILES (X86)\MICROSOFT VISUAL STUDIO\2019\COMMUNITY\VC\TOOLS\MSVC\14.28.29333\INCLUDE\CSTDLIB
C:\PROGRAM FILES (X86)\WINDOWS KITS\10\INCLUDE\10.0.18362.0\UCRT\MATH.H
C:\PROGRAM FILES (X86)\WINDOWS KITS\10\INCLUDE\10.0.18362.0\UCRT\CORECRT_MATH.H
C:\PROGRAM FILES (X86)\WINDOWS KITS\10\INCLUDE\10.0.18362.0\UCRT\STDLIB.H
C:\PROGRAM FILES (X86)\WINDOWS KITS\10\INCLUDE\10.0.18362.0\UCRT\CORECRT_MALLOC.H
C:\PROGRAM FILES (X86)\WINDOWS KITS\10\INCLUDE\10.0.18362.0\UCRT\CORECRT_SEARCH.H
C:\PROGRAM FILES (X86)\WINDOWS KITS\10\INCLUDE\10.0.18362.0\UCRT\STDDEF.H
C:\PROGRAM FILES (X86)\WINDOWS KITS\10\INCLUDE\10.0.18362.0\UCRT\CORECRT_WSTDLIB.H
C:\PROGRAM FILES (X86)\MICROSOFT VISUAL STUDIO\2019\COMMUNITY\VC\TOOLS\MSVC\14.28.29333\INCLUDE\XTR1COMMON
C:\PROGRAM FILES (X86)\MICROSOFT VISUAL STUDIO\2019\COMMUNITY\VC\TOOLS\MSVC\14.28.29333\INCLUDE\CSTDIO
C:\PROGRAM FILES (X86)\WINDOWS KITS\10\INCLUDE\10.0.18362.0\UCRT\STDIO.H
C:\PROGRAM FILES (X86)\WINDOWS KITS\10\INCLUDE\10.0.18362.0\UCRT\CORECRT_WSTDIO.H
C:\PROGRAM FILES (X86)\WINDOWS KITS\10\INCLUDE\10.0.18362.0\UCRT\CORECRT_STDIO_CONFIG.H
C:\PROGRAM FILES (X86)\MICROSOFT VISUAL STUDIO\2019\COMMUNITY\VC\TOOLS\MSVC\14.28.29333\INCLUDE\ITERATOR
C:\PROGRAM FILES (X86)\MICROSOFT VISUAL STUDIO\2019\COMMUNITY\VC\TOOLS\MSVC\14.28.29333\INCLUDE\IOSFWD
C:\PROGRAM FILES (X86)\MICROSOFT VISUAL STUDIO\2019\COMMUNITY\VC\TOOLS\MSVC\14.28.29333\INCLUDE\CSTRING
C:\PROGRAM FILES (X86)\WINDOWS KITS\10\INCLUDE\10.0.18362.0\UCRT\STRING.H
C:\PROGRAM FILES (X86)\WINDOWS KITS\10\INCLUDE\10.0.18362.0\UCRT\CORECRT_MEMORY.H
C:\PROGRAM FILES (X86)\WINDOWS KITS\10\INCLUDE\10.0.18362.0\UCRT\CORECRT_MEMCPY_S.H
C:\PROGRAM FILES (X86)\WINDOWS KITS\10\INCLUDE\10.0.18362.0\UCRT\ERRNO.H
C:\PROGRAM FILES (X86)\MICROSOFT VISUAL STUDIO\2019\COMMUNITY\VC\TOOLS\MSVC\14.28.29333\INCLUDE\VCRUNTIME_STRING.H
C:\PROGRAM FILES (X86)\WINDOWS KITS\10\INCLUDE\10.0.18362.0\UCRT\CORECRT_WSTRING.H
C:\PROGRAM FILES (X86)\MICROSOFT VISUAL STUDIO\2019\COMMUNITY\VC\TOOLS\MSVC\14.28.29333\INCLUDE\CWCHAR
C:\PROGRAM FILES (X86)\WINDOWS KITS\10\INCLUDE\10.0.18362.0\UCRT\WCHAR.H
C:\PROGRAM FILES (X86)\WINDOWS KITS\10\INCLUDE\10.0.18362.0\UCRT\CORECRT_WCONIO.H
C:\PROGRAM FILES (X86)\WINDOWS KITS\10\INCLUDE\10.0.18362.0\UCRT\CORECRT_WCTYPE.H
C:\PROGRAM FILES (X86)\WINDOWS KITS\10\INCLUDE\10.0.18362.0\UCRT\CORECRT_WDIRECT.H
C:\PROGRAM FILES (X86)\WINDOWS KITS\10\INCLUDE\10.0.18362.0\UCRT\CORECRT_WIO.H
C:\PROGRAM FILES (X86)\WINDOWS KITS\10\INCLUDE\10.0.18362.0\UCRT\CORECRT_SHARE.H
C:\PROGRAM FILES (X86)\WINDOWS KITS\10\INCLUDE\10.0.18362.0\UCRT\CORECRT_WPROCESS.H
C:\PROGRAM FILES (X86)\WINDOWS KITS\10\INCLUDE\10.0.18362.0\UCRT\CORECRT_WTIME.H
C:\PROGRAM FILES (X86)\WINDOWS KITS\10\INCLUDE\10.0.18362.0\UCRT\SYS\STAT.H
C:\PROGRAM FILES (X86)\WINDOWS KITS\10\INCLUDE\10.0.18362.0\UCRT\SYS\TYPES.H
C:\PROGRAM FILES (X86)\MICROSOFT VISUAL STUDIO\2019\COMMUNITY\VC\TOOLS\MSVC\14.28.29333\INCLUDE\XSTDDEF
C:\PROGRAM FILES (X86)\MICROSOFT VISUAL STUDIO\2019\COMMUNITY\VC\TOOLS\MSVC\14.28.29333\INCLUDE\CSTDDEF
C:\PROGRAM FILES (X86)\MICROSOFT VISUAL STUDIO\2019\COMMUNITY\VC\TOOLS\MSVC\14.28.29333\INCLUDE\INITIALIZER_LIST
C:\PROGRAM FILES (X86)\MICROSOFT VISUAL STUDIO\2019\COMMUNITY\VC\TOOLS\MSVC\14.28.29333\INCLUDE\XUTILITY
C:\PROGRAM FILES (X86)\MICROSOFT VISUAL STUDIO\2019\COMMUNITY\VC\TOOLS\MSVC\14.28.29333\INCLUDE\UTILITY
C:\PROGRAM FILES (X86)\MICROSOFT VISUAL STUDIO\2019\COMMUNITY\VC\TOOLS\MSVC\14.28.29333\INCLUDE\TYPE_TRAITS
C:\PROGRAM FILES (X86)\MICROSOFT VISUAL STUDIO\2019\COMMUNITY\VC\TOOLS\MSVC\14.28.29333\INCLUDE\STREAMBUF
C:\PROGRAM FILES (X86)\MICROSOFT VISUAL STUDIO\2019\COMMUNITY\VC\TOOLS\MSVC\14.28.29333\INCLUDE\XIOSBASE
C:\PROGRAM FILES (X86)\WINDOWS KITS\10\INCLUDE\10.0.18362.0\UCRT\SHARE.H
C:\PROGRAM FILES (X86)\MICROSOFT VISUAL STUDIO\2019\COMMUNITY\VC\TOOLS\MSVC\14.28.29333\INCLUDE\SYSTEM_ERROR
C:\PROGRAM FILES (X86)\MICROSOFT VISUAL STUDIO\2019\COMMUNITY\VC\TOOLS\MSVC\14.28.29333\INCLUDE\__MSVC_SYSTEM_ERROR_ABI.HPP
C:\PROGRAM FILES (X86)\MICROSOFT VISUAL STUDIO\2019\COMMUNITY\VC\TOOLS\MSVC\14.28.29333\INCLUDE\CERRNO
C:\PROGRAM FILES (X86)\MICROSOFT VISUAL STUDIO\2019\COMMUNITY\VC\TOOLS\MSVC\14.28.29333\INCLUDE\STDEXCEPT
C:\PROGRAM FILES (X86)\MICROSOFT VISUAL STUDIO\2019\COMMUNITY\VC\TOOLS\MSVC\14.28.29333\INCLUDE\EXCEPTION
C:\PROGRAM FILES (X86)\WINDOWS KITS\10\INCLUDE\10.0.18362.0\UCRT\MALLOC.H
C:\PROGRAM FILES (X86)\MICROSOFT VISUAL STUDIO\2019\COMMUNITY\VC\TOOLS\MSVC\14.28.29333\INCLUDE\VCRUNTIME_EXCEPTION.H
C:\PROGRAM FILES (X86)\MICROSOFT VISUAL STUDIO\2019\COMMUNITY\VC\TOOLS\MSVC\14.28.29333\INCLUDE\EH.H
C:\PROGRAM FILES (X86)\WINDOWS KITS\10\INCLUDE\10.0.18362.0\UCRT\CORECRT_TERMINATE.H
C:\PROGRAM FILES (X86)\MICROSOFT VISUAL STUDIO\2019\COMMUNITY\VC\TOOLS\MSVC\14.28.29333\INCLUDE\XSTRING
C:\PROGRAM FILES (X86)\MICROSOFT VISUAL STUDIO\2019\COMMUNITY\VC\TOOLS\MSVC\14.28.29333\INCLUDE\XMEMORY
C:\PROGRAM FILES (X86)\MICROSOFT VISUAL STUDIO\2019\COMMUNITY\VC\TOOLS\MSVC\14.28.29333\INCLUDE\CSTDINT
C:\PROGRAM FILES (X86)\MICROSOFT VISUAL STUDIO\2019\COMMUNITY\VC\TOOLS\MSVC\14.28.29333\INCLUDE\STDINT.H
C:\PROGRAM FILES (X86)\MICROSOFT VISUAL STUDIO\2019\COMMUNITY\VC\TOOLS\MSVC\14.28.29333\INCLUDE\LIMITS
C:\PROGRAM FILES (X86)\MICROSOFT VISUAL STUDIO\2019\COMMUNITY\VC\TOOLS\MSVC\14.28.29333\INCLUDE\CFLOAT
C:\PROGRAM FILES (X86)\WINDOWS KITS\10\INCLUDE\10.0.18362.0\UCRT\FLOAT.H
C:\PROGRAM FILES (X86)\MICROSOFT VISUAL STUDIO\2019\COMMUNITY\VC\TOOLS\MSVC\14.28.29333\INCLUDE\INTRIN0.H
C:\PROGRAM FILES (X86)\MICROSOFT VISUAL STUDIO\2019\COMMUNITY\VC\TOOLS\MSVC\14.28.29333\INCLUDE\ISA_AVAILABILITY.H
C:\PROGRAM FILES (X86)\MICROSOFT VISUAL STUDIO\2019\COMMUNITY\VC\TOOLS\MSVC\14.28.29333\INCLUDE\NEW
C:\PROGRAM FILES (X86)\MICROSOFT VISUAL STUDIO\2019\COMMUNITY\VC\TOOLS\MSVC\14.28.29333\INCLUDE\XATOMIC.H
C:\PROGRAM FILES (X86)\MICROSOFT VISUAL STUDIO\2019\COMMUNITY\VC\TOOLS\MSVC\14.28.29333\INCLUDE\XCALL_ONCE.H
C:\PROGRAM FILES (X86)\MICROSOFT VISUAL STUDIO\2019\COMMUNITY\VC\TOOLS\MSVC\14.28.29333\INCLUDE\XERRC.H
C:\PROGRAM FILES (X86)\MICROSOFT VISUAL STUDIO\2019\COMMUNITY\VC\TOOLS\MSVC\14.28.29333\INCLUDE\ATOMIC
C:\PROGRAM FILES (X86)\MICROSOFT VISUAL STUDIO\2019\COMMUNITY\VC\TOOLS\MSVC\14.28.29333\INCLUDE\XTHREADS.H
C:\PROGRAM FILES (X86)\MICROSOFT VISUAL STUDIO\2019\COMMUNITY\VC\TOOLS\MSVC\14.28.29333\INCLUDE\XTIMEC.H
C:\PROGRAM FILES (X86)\WINDOWS KITS\10\INCLUDE\10.0.18362.0\UCRT\TIME.H
C:\PROGRAM FILES (X86)\MICROSOFT VISUAL STUDIO\2019\COMMUNITY\VC\TOOLS\MSVC\14.28.29333\INCLUDE\XLOCALE
C:\PROGRAM FILES (X86)\MICROSOFT VISUAL STUDIO\2019\COMMUNITY\VC\TOOLS\MSVC\14.28.29333\INCLUDE\MEMORY
C:\PROGRAM FILES (X86)\MICROSOFT VISUAL STUDIO\2019\COMMUNITY\VC\TOOLS\MSVC\14.28.29333\INCLUDE\TYPEINFO
C:\PROGRAM FILES (X86)\MICROSOFT VISUAL STUDIO\2019\COMMUNITY\VC\TOOLS\MSVC\14.28.29333\INCLUDE\VCRUNTIME_TYPEINFO.H
C:\PROGRAM FILES (X86)\MICROSOFT VISUAL STUDIO\2019\COMMUNITY\VC\TOOLS\MSVC\14.28.29333\INCLUDE\XFACET
C:\PROGRAM FILES (X86)\MICROSOFT VISUAL STUDIO\2019\COMMUNITY\VC\TOOLS\MSVC\14.28.29333\INCLUDE\XLOCINFO
C:\PROGRAM FILES (X86)\MICROSOFT VISUAL STUDIO\2019\COMMUNITY\VC\TOOLS\MSVC\14.28.29333\INCLUDE\XLOCINFO.H
C:\PROGRAM FILES (X86)\WINDOWS KITS\10\INCLUDE\10.0.18362.0\UCRT\CTYPE.H
C:\PROGRAM FILES (X86)\WINDOWS KITS\10\INCLUDE\10.0.18362.0\UCRT\LOCALE.H
C:\QT\QT5.12.10\5.12.10\MSVC2017_64\INCLUDE\QTWIDGETS\QAPPLICATION
C:\QT\QT5.12.10\5.12.10\MSVC2017_64\INCLUDE\QTWIDGETS\QAPPLICATION.H
C:\QT\QT5.12.10\5.12.10\MSVC2017_64\INCLUDE\QTWIDGETS\QTWIDGETSGLOBAL.H
C:\QT\QT5.12.10\5.12.10\MSVC2017_64\INCLUDE\QTGUI\QTGUIGLOBAL.H
C:\QT\QT5.12.10\5.12.10\MSVC2017_64\INCLUDE\QTCORE\QGLOBAL.H
C:\PROGRAM FILES (X86)\WINDOWS KITS\10\INCLUDE\10.0.18362.0\UCRT\ASSERT.H
C:\QT\QT5.12.10\5.12.10\MSVC2017_64\INCLUDE\QTCORE\QCONFIG.H
C:\QT\QT5.12.10\5.12.10\MSVC2017_64\INCLUDE\QTCORE\QTCORE-CONFIG.H
C:\QT\QT5.12.10\5.12.10\MSVC2017_64\INCLUDE\QTCORE\QSYSTEMDETECTION.H
C:\QT\QT5.12.10\5.12.10\MSVC2017_64\INCLUDE\QTCORE\QPROCESSORDETECTION.H
C:\QT\QT5.12.10\5.12.10\MSVC2017_64\INCLUDE\QTCORE\QCOMPILERDETECTION.H
C:\PROGRAM FILES (X86)\MICROSOFT VISUAL STUDIO\2019\COMMUNITY\VC\TOOLS\MSVC\14.28.29333\INCLUDE\ALGORITHM
C:\QT\QT5.12.10\5.12.10\MSVC2017_64\INCLUDE\QTCORE\QTYPEINFO.H
C:\QT\QT5.12.10\5.12.10\MSVC2017_64\INCLUDE\QTCORE\QSYSINFO.H
C:\QT\QT5.12.10\5.12.10\MSVC2017_64\INCLUDE\QTCORE\QLOGGING.H
C:\QT\QT5.12.10\5.12.10\MSVC2017_64\INCLUDE\QTCORE\QFLAGS.H
C:\QT\QT5.12.10\5.12.10\MSVC2017_64\INCLUDE\QTCORE\QATOMIC.H
C:\QT\QT5.12.10\5.12.10\MSVC2017_64\INCLUDE\QTCORE\QBASICATOMIC.H
C:\QT\QT5.12.10\5.12.10\MSVC2017_64\INCLUDE\QTCORE\QATOMIC_CXX11.H
C:\QT\QT5.12.10\5.12.10\MSVC2017_64\INCLUDE\QTCORE\QGENERICATOMIC.H
C:\QT\QT5.12.10\5.12.10\MSVC2017_64\INCLUDE\QTCORE\QGLOBALSTATIC.H
C:\QT\QT5.12.10\5.12.10\MSVC2017_64\INCLUDE\QTCORE\QNUMERIC.H
C:\QT\QT5.12.10\5.12.10\MSVC2017_64\INCLUDE\QTCORE\QVERSIONTAGGING.H
C:\QT\QT5.12.10\5.12.10\MSVC2017_64\INCLUDE\QTGUI\QTGUI-CONFIG.H
C:\QT\QT5.12.10\5.12.10\MSVC2017_64\INCLUDE\QTWIDGETS\QTWIDGETS-CONFIG.H
C:\QT\QT5.12.10\5.12.10\MSVC2017_64\INCLUDE\QTCORE\QCOREAPPLICATION.H
C:\QT\QT5.12.10\5.12.10\MSVC2017_64\INCLUDE\QTCORE\QSTRING.H
C:\QT\QT5.12.10\5.12.10\MSVC2017_64\INCLUDE\QTCORE\QCHAR.H
C:\QT\QT5.12.10\5.12.10\MSVC2017_64\INCLUDE\QTCORE\QBYTEARRAY.H
C:\QT\QT5.12.10\5.12.10\MSVC2017_64\INCLUDE\QTCORE\QREFCOUNT.H
C:\QT\QT5.12.10\5.12.10\MSVC2017_64\INCLUDE\QTCORE\QNAMESPACE.H
C:\QT\QT5.12.10\5.12.10\MSVC2017_64\INCLUDE\QTCORE\QARRAYDATA.H
C:\PROGRAM FILES (X86)\MICROSOFT VISUAL STUDIO\2019\COMMUNITY\VC\TOOLS\MSVC\14.28.29333\INCLUDE\STDARG.H
C:\PROGRAM FILES (X86)\MICROSOFT VISUAL STUDIO\2019\COMMUNITY\VC\TOOLS\MSVC\14.28.29333\INCLUDE\STRING
C:\PROGRAM FILES (X86)\MICROSOFT VISUAL STUDIO\2019\COMMUNITY\VC\TOOLS\MSVC\14.28.29333\INCLUDE\CCTYPE
C:\QT\QT5.12.10\5.12.10\MSVC2017_64\INCLUDE\QTCORE\QSTRINGLITERAL.H
C:\QT\QT5.12.10\5.12.10\MSVC2017_64\INCLUDE\QTCORE\QSTRINGALGORITHMS.H
C:\QT\QT5.12.10\5.12.10\MSVC2017_64\INCLUDE\QTCORE\QSTRINGVIEW.H
C:\QT\QT5.12.10\5.12.10\MSVC2017_64\INCLUDE\QTCORE\QOBJECT.H
C:\QT\QT5.12.10\5.12.10\MSVC2017_64\INCLUDE\QTCORE\QOBJECTDEFS.H
C:\QT\QT5.12.10\5.12.10\MSVC2017_64\INCLUDE\QTCORE\QOBJECTDEFS_IMPL.H
C:\QT\QT5.12.10\5.12.10\MSVC2017_64\INCLUDE\QTCORE\QLIST.H
C:\QT\QT5.12.10\5.12.10\MSVC2017_64\INCLUDE\QTCORE\QALGORITHMS.H
C:\PROGRAM FILES (X86)\MICROSOFT VISUAL STUDIO\2019\COMMUNITY\VC\TOOLS\MSVC\14.28.29333\INCLUDE\INTRIN.H
C:\PROGRAM FILES (X86)\MICROSOFT VISUAL STUDIO\2019\COMMUNITY\VC\TOOLS\MSVC\14.28.29333\INCLUDE\SETJMP.H
C:\PROGRAM FILES (X86)\MICROSOFT VISUAL STUDIO\2019\COMMUNITY\VC\TOOLS\MSVC\14.28.29333\INCLUDE\IMMINTRIN.H
C:\PROGRAM FILES (X86)\MICROSOFT VISUAL STUDIO\2019\COMMUNITY\VC\TOOLS\MSVC\14.28.29333\INCLUDE\WMMINTRIN.H
C:\PROGRAM FILES (X86)\MICROSOFT VISUAL STUDIO\2019\COMMUNITY\VC\TOOLS\MSVC\14.28.29333\INCLUDE\NMMINTRIN.H
C:\PROGRAM FILES (X86)\MICROSOFT VISUAL STUDIO\2019\COMMUNITY\VC\TOOLS\MSVC\14.28.29333\INCLUDE\SMMINTRIN.H
C:\PROGRAM FILES (X86)\MICROSOFT VISUAL STUDIO\2019\COMMUNITY\VC\TOOLS\MSVC\14.28.29333\INCLUDE\TMMINTRIN.H
C:\PROGRAM FILES (X86)\MICROSOFT VISUAL STUDIO\2019\COMMUNITY\VC\TOOLS\MSVC\14.28.29333\INCLUDE\PMMINTRIN.H
C:\PROGRAM FILES (X86)\MICROSOFT VISUAL STUDIO\2019\COMMUNITY\VC\TOOLS\MSVC\14.28.29333\INCLUDE\EMMINTRIN.H
C:\PROGRAM FILES (X86)\MICROSOFT VISUAL STUDIO\2019\COMMUNITY\VC\TOOLS\MSVC\14.28.29333\INCLUDE\XMMINTRIN.H
C:\PROGRAM FILES (X86)\MICROSOFT VISUAL STUDIO\2019\COMMUNITY\VC\TOOLS\MSVC\14.28.29333\INCLUDE\MMINTRIN.H
C:\PROGRAM FILES (X86)\MICROSOFT VISUAL STUDIO\2019\COMMUNITY\VC\TOOLS\MSVC\14.28.29333\INCLUDE\ZMMINTRIN.H
C:\PROGRAM FILES (X86)\MICROSOFT VISUAL STUDIO\2019\COMMUNITY\VC\TOOLS\MSVC\14.28.29333\INCLUDE\AMMINTRIN.H
C:\QT\QT5.12.10\5.12.10\MSVC2017_64\INCLUDE\QTCORE\QITERATOR.H
C:\QT\QT5.12.10\5.12.10\MSVC2017_64\INCLUDE\QTCORE\QHASHFUNCTIONS.H
C:\QT\QT5.12.10\5.12.10\MSVC2017_64\INCLUDE\QTCORE\QPAIR.H
C:\PROGRAM FILES (X86)\MICROSOFT VISUAL STUDIO\2019\COMMUNITY\VC\TOOLS\MSVC\14.28.29333\INCLUDE\NUMERIC
C:\PROGRAM FILES (X86)\MICROSOFT VISUAL STUDIO\2019\COMMUNITY\VC\TOOLS\MSVC\14.28.29333\INCLUDE\LIST
C:\QT\QT5.12.10\5.12.10\MSVC2017_64\INCLUDE\QTCORE\QBYTEARRAYLIST.H
C:\QT\QT5.12.10\5.12.10\MSVC2017_64\INCLUDE\QTCORE\QSTRINGLIST.H
C:\QT\QT5.12.10\5.12.10\MSVC2017_64\INCLUDE\QTCORE\QREGEXP.H
C:\QT\QT5.12.10\5.12.10\MSVC2017_64\INCLUDE\QTCORE\QSTRINGMATCHER.H
C:\QT\QT5.12.10\5.12.10\MSVC2017_64\INCLUDE\QTCORE\QSCOPEDPOINTER.H
C:\QT\QT5.12.10\5.12.10\MSVC2017_64\INCLUDE\QTCORE\QMETATYPE.H
C:\QT\QT5.12.10\5.12.10\MSVC2017_64\INCLUDE\QTCORE\QVARLENGTHARRAY.H
C:\QT\QT5.12.10\5.12.10\MSVC2017_64\INCLUDE\QTCORE\QCONTAINERFWD.H
C:\PROGRAM FILES (X86)\MICROSOFT VISUAL STUDIO\2019\COMMUNITY\VC\TOOLS\MSVC\14.28.29333\INCLUDE\VECTOR
C:\PROGRAM FILES (X86)\MICROSOFT VISUAL STUDIO\2019\COMMUNITY\VC\TOOLS\MSVC\14.28.29333\INCLUDE\MAP
C:\PROGRAM FILES (X86)\MICROSOFT VISUAL STUDIO\2019\COMMUNITY\VC\TOOLS\MSVC\14.28.29333\INCLUDE\TUPLE
C:\PROGRAM FILES (X86)\MICROSOFT VISUAL STUDIO\2019\COMMUNITY\VC\TOOLS\MSVC\14.28.29333\INCLUDE\XTREE
C:\QT\QT5.12.10\5.12.10\MSVC2017_64\INCLUDE\QTCORE\QOBJECT_IMPL.H
C:\PROGRAM FILES (X86)\MICROSOFT VISUAL STUDIO\2019\COMMUNITY\VC\TOOLS\MSVC\14.28.29333\INCLUDE\CHRONO
C:\PROGRAM FILES (X86)\MICROSOFT VISUAL STUDIO\2019\COMMUNITY\VC\TOOLS\MSVC\14.28.29333\INCLUDE\RATIO
C:\QT\QT5.12.10\5.12.10\MSVC2017_64\INCLUDE\QTCORE\QCOREEVENT.H
C:\QT\QT5.12.10\5.12.10\MSVC2017_64\INCLUDE\QTCORE\QEVENTLOOP.H
C:\QT\QT5.12.10\5.12.10\MSVC2017_64\INCLUDE\QTGUI\QWINDOWDEFS.H
C:\QT\QT5.12.10\5.12.10\MSVC2017_64\INCLUDE\QTGUI\QWINDOWDEFS_WIN.H
C:\QT\QT5.12.10\5.12.10\MSVC2017_64\INCLUDE\QTCORE\QPOINT.H
C:\QT\QT5.12.10\5.12.10\MSVC2017_64\INCLUDE\QTCORE\QSIZE.H
C:\QT\QT5.12.10\5.12.10\MSVC2017_64\INCLUDE\QTGUI\QCURSOR.H
C:\QT\QT5.12.10\5.12.10\MSVC2017_64\INCLUDE\QTGUI\QGUIAPPLICATION.H
C:\QT\QT5.12.10\5.12.10\MSVC2017_64\INCLUDE\QTGUI\QINPUTMETHOD.H
C:\QT\QT5.12.10\5.12.10\MSVC2017_64\INCLUDE\QTCORE\QLOCALE.H
C:\QT\QT5.12.10\5.12.10\MSVC2017_64\INCLUDE\QTCORE\QVARIANT.H
C:\QT\QT5.12.10\5.12.10\MSVC2017_64\INCLUDE\QTCORE\QMAP.H
C:\PROGRAM FILES (X86)\MICROSOFT VISUAL STUDIO\2019\COMMUNITY\VC\TOOLS\MSVC\14.28.29333\INCLUDE\FUNCTIONAL
C:\QT\QT5.12.10\5.12.10\MSVC2017_64\INCLUDE\QTCORE\QHASH.H
C:\QT\QT5.12.10\5.12.10\MSVC2017_64\INCLUDE\QTCORE\QSHAREDDATA.H
C:\USERS\PRESE\DESKTOP\TEST\TASKSYSTEM\TASKSYSTEM\MYWIDGET.H
C:\QT\QT5.12.10\5.12.10\MSVC2017_64\INCLUDE\QTWIDGETS\QWIDGET.H
C:\QT\QT5.12.10\5.12.10\MSVC2017_64\INCLUDE\QTCORE\QMARGINS.H
C:\QT\QT5.12.10\5.12.10\MSVC2017_64\INCLUDE\QTGUI\QPAINTDEVICE.H
C:\QT\QT5.12.10\5.12.10\MSVC2017_64\INCLUDE\QTCORE\QRECT.H
C:\QT\QT5.12.10\5.12.10\MSVC2017_64\INCLUDE\QTGUI\QPALETTE.H
C:\QT\QT5.12.10\5.12.10\MSVC2017_64\INCLUDE\QTGUI\QCOLOR.H
C:\QT\QT5.12.10\5.12.10\MSVC2017_64\INCLUDE\QTGUI\QRGB.H
C:\QT\QT5.12.10\5.12.10\MSVC2017_64\INCLUDE\QTGUI\QRGBA64.H
C:\QT\QT5.12.10\5.12.10\MSVC2017_64\INCLUDE\QTGUI\QBRUSH.H
C:\QT\QT5.12.10\5.12.10\MSVC2017_64\INCLUDE\QTCORE\QVECTOR.H
C:\QT\QT5.12.10\5.12.10\MSVC2017_64\INCLUDE\QTGUI\QMATRIX.H
C:\QT\QT5.12.10\5.12.10\MSVC2017_64\INCLUDE\QTGUI\QPOLYGON.H
C:\QT\QT5.12.10\5.12.10\MSVC2017_64\INCLUDE\QTGUI\QREGION.H
C:\QT\QT5.12.10\5.12.10\MSVC2017_64\INCLUDE\QTCORE\QDATASTREAM.H
C:\QT\QT5.12.10\5.12.10\MSVC2017_64\INCLUDE\QTCORE\QIODEVICE.H
C:\QT\QT5.12.10\5.12.10\MSVC2017_64\INCLUDE\QTCORE\QLINE.H
C:\QT\QT5.12.10\5.12.10\MSVC2017_64\INCLUDE\QTGUI\QTRANSFORM.H
C:\QT\QT5.12.10\5.12.10\MSVC2017_64\INCLUDE\QTGUI\QPAINTERPATH.H
C:\QT\QT5.12.10\5.12.10\MSVC2017_64\INCLUDE\QTGUI\QIMAGE.H
C:\QT\QT5.12.10\5.12.10\MSVC2017_64\INCLUDE\QTGUI\QPIXELFORMAT.H
C:\QT\QT5.12.10\5.12.10\MSVC2017_64\INCLUDE\QTGUI\QPIXMAP.H
C:\QT\QT5.12.10\5.12.10\MSVC2017_64\INCLUDE\QTCORE\QSHAREDPOINTER.H
C:\QT\QT5.12.10\5.12.10\MSVC2017_64\INCLUDE\QTCORE\QSHAREDPOINTER_IMPL.H
C:\QT\QT5.12.10\5.12.10\MSVC2017_64\INCLUDE\QTGUI\QFONT.H
C:\QT\QT5.12.10\5.12.10\MSVC2017_64\INCLUDE\QTGUI\QFONTMETRICS.H
C:\QT\QT5.12.10\5.12.10\MSVC2017_64\INCLUDE\QTGUI\QFONTINFO.H
C:\QT\QT5.12.10\5.12.10\MSVC2017_64\INCLUDE\QTWIDGETS\QSIZEPOLICY.H
C:\QT\QT5.12.10\5.12.10\MSVC2017_64\INCLUDE\QTGUI\QKEYSEQUENCE.H
C:\QT\QT5.12.10\5.12.10\MSVC2017_64\INCLUDE\QTWIDGETS\QTABLEWIDGET.H
C:\QT\QT5.12.10\5.12.10\MSVC2017_64\INCLUDE\QTWIDGETS\QTABLEVIEW.H
C:\QT\QT5.12.10\5.12.10\MSVC2017_64\INCLUDE\QTWIDGETS\QABSTRACTITEMVIEW.H
C:\QT\QT5.12.10\5.12.10\MSVC2017_64\INCLUDE\QTWIDGETS\QABSTRACTSCROLLAREA.H
C:\QT\QT5.12.10\5.12.10\MSVC2017_64\INCLUDE\QTWIDGETS\QFRAME.H
C:\QT\QT5.12.10\5.12.10\MSVC2017_64\INCLUDE\QTCORE\QABSTRACTITEMMODEL.H
C:\QT\QT5.12.10\5.12.10\MSVC2017_64\INCLUDE\QTCORE\QITEMSELECTIONMODEL.H
C:\QT\QT5.12.10\5.12.10\MSVC2017_64\INCLUDE\QTCORE\QSET.H
C:\QT\QT5.12.10\5.12.10\MSVC2017_64\INCLUDE\QTWIDGETS\QABSTRACTITEMDELEGATE.H
C:\QT\QT5.12.10\5.12.10\MSVC2017_64\INCLUDE\QTWIDGETS\QSTYLEOPTION.H
C:\QT\QT5.12.10\5.12.10\MSVC2017_64\INCLUDE\QTWIDGETS\QABSTRACTSPINBOX.H
C:\QT\QT5.12.10\5.12.10\MSVC2017_64\INCLUDE\QTGUI\QVALIDATOR.H
C:\QT\QT5.12.10\5.12.10\MSVC2017_64\INCLUDE\QTCORE\QREGULAREXPRESSION.H
C:\QT\QT5.12.10\5.12.10\MSVC2017_64\INCLUDE\QTGUI\QICON.H
C:\QT\QT5.12.10\5.12.10\MSVC2017_64\INCLUDE\QTWIDGETS\QSLIDER.H
C:\QT\QT5.12.10\5.12.10\MSVC2017_64\INCLUDE\QTWIDGETS\QABSTRACTSLIDER.H
C:\QT\QT5.12.10\5.12.10\MSVC2017_64\INCLUDE\QTWIDGETS\QSTYLE.H
C:\QT\QT5.12.10\5.12.10\MSVC2017_64\INCLUDE\QTWIDGETS\QTABBAR.H
C:\QT\QT5.12.10\5.12.10\MSVC2017_64\INCLUDE\QTWIDGETS\QTABWIDGET.H
C:\QT\QT5.12.10\5.12.10\MSVC2017_64\INCLUDE\QTWIDGETS\QRUBBERBAND.H
C:\QT\QT5.12.10\5.12.10\MSVC2017_64\INCLUDE\QTWIDGETS\QLABEL.H
C:\QT\QT5.12.10\5.12.10\MSVC2017_64\INCLUDE\QTWIDGETS\QTEXTEDIT.H
C:\QT\QT5.12.10\5.12.10\MSVC2017_64\INCLUDE\QTGUI\QTEXTDOCUMENT.H
C:\QT\QT5.12.10\5.12.10\MSVC2017_64\INCLUDE\QTCORE\QURL.H
C:\QT\QT5.12.10\5.12.10\MSVC2017_64\INCLUDE\QTGUI\QTEXTOPTION.H
C:\QT\QT5.12.10\5.12.10\MSVC2017_64\INCLUDE\QTGUI\QTEXTCURSOR.H
C:\QT\QT5.12.10\5.12.10\MSVC2017_64\INCLUDE\QTGUI\QTEXTFORMAT.H
C:\QT\QT5.12.10\5.12.10\MSVC2017_64\INCLUDE\QTGUI\QPEN.H
C:\QT\QT5.12.10\5.12.10\MSVC2017_64\INCLUDE\QTWIDGETS\QPUSHBUTTON.H
C:\QT\QT5.12.10\5.12.10\MSVC2017_64\INCLUDE\QTWIDGETS\QABSTRACTBUTTON.H
C:\USERS\PRESE\DESKTOP\TEST\TASKSYSTEM\TASKSYSTEM\DATABASECONNECTION.H
C:\PROGRAM FILES\POSTGRESQL\13\INCLUDE\LIBPQ-FE.H
C:\PROGRAM FILES\POSTGRESQL\13\INCLUDE\POSTGRES_EXT.H
C:\PROGRAM FILES\POSTGRESQL\13\INCLUDE\PG_CONFIG_EXT.H
C:\USERS\PRESE\DESKTOP\TEST\TASKSYSTEM\TASKSYSTEM\TASK.H
C:\PROGRAM FILES (X86)\MICROSOFT VISUAL STUDIO\2019\COMMUNITY\VC\TOOLS\MSVC\14.28.29333\INCLUDE\CTIME
C:\USERS\PRESE\DESKTOP\TEST\TASKSYSTEM\TASKSYSTEM\WORKER.H
^C:\USERS\PRESE\DESKTOP\TEST\TASKSYSTEM\TASKSYSTEM\MYWIDGET.CPP
C:\WINDOWS\GLOBALIZATION\SORTING\SORTDEFAULT.NLS
C:\PROGRAM FILES (X86)\MICROSOFT VISUAL STUDIO\2019\COMMUNITY\VC\TOOLS\MSVC\14.28.29333\BIN\HOSTX86\X64\1049\CLUI.DLL
C:\WINDOWS\SYSTEM32\TZRES.DLL
C:\USERS\PRESE\DESKTOP\TEST\TASKSYSTEM\TASKSYSTEM\MYWIDGET.H
C:\QT\QT5.12.10\5.12.10\MSVC2017_64\INCLUDE\QTWIDGETS\QWIDGET.H
C:\QT\QT5.12.10\5.12.10\MSVC2017_64\INCLUDE\QTWIDGETS\QTWIDGETSGLOBAL.H
C:\QT\QT5.12.10\5.12.10\MSVC2017_64\INCLUDE\QTGUI\QTGUIGLOBAL.H
C:\QT\QT5.12.10\5.12.10\MSVC2017_64\INCLUDE\QTCORE\QGLOBAL.H
C:\PROGRAM FILES (X86)\MICROSOFT VISUAL STUDIO\2019\COMMUNITY\VC\TOOLS\MSVC\14.28.29333\INCLUDE\TYPE_TRAITS
C:\PROGRAM FILES (X86)\MICROSOFT VISUAL STUDIO\2019\COMMUNITY\VC\TOOLS\MSVC\14.28.29333\INCLUDE\YVALS_CORE.H
C:\PROGRAM FILES (X86)\MICROSOFT VISUAL STUDIO\2019\COMMUNITY\VC\TOOLS\MSVC\14.28.29333\INCLUDE\VCRUNTIME.H
C:\PROGRAM FILES (X86)\MICROSOFT VISUAL STUDIO\2019\COMMUNITY\VC\TOOLS\MSVC\14.28.29333\INCLUDE\SAL.H
C:\PROGRAM FILES (X86)\MICROSOFT VISUAL STUDIO\2019\COMMUNITY\VC\TOOLS\MSVC\14.28.29333\INCLUDE\CONCURRENCYSAL.H
C:\PROGRAM FILES (X86)\MICROSOFT VISUAL STUDIO\2019\COMMUNITY\VC\TOOLS\MSVC\14.28.29333\INCLUDE\VADEFS.H
C:\PROGRAM FILES (X86)\MICROSOFT VISUAL STUDIO\2019\COMMUNITY\VC\TOOLS\MSVC\14.28.29333\INCLUDE\XKEYCHECK.H
C:\PROGRAM FILES (X86)\MICROSOFT VISUAL STUDIO\2019\COMMUNITY\VC\TOOLS\MSVC\14.28.29333\INCLUDE\XSTDDEF
C:\PROGRAM FILES (X86)\MICROSOFT VISUAL STUDIO\2019\COMMUNITY\VC\TOOLS\MSVC\14.28.29333\INCLUDE\CSTDDEF
C:\PROGRAM FILES (X86)\WINDOWS KITS\10\INCLUDE\10.0.18362.0\UCRT\STDDEF.H
C:\PROGRAM FILES (X86)\WINDOWS KITS\10\INCLUDE\10.0.18362.0\UCRT\CORECRT.H
C:\PROGRAM FILES (X86)\MICROSOFT VISUAL STUDIO\2019\COMMUNITY\VC\TOOLS\MSVC\14.28.29333\INCLUDE\XTR1COMMON
C:\PROGRAM FILES (X86)\MICROSOFT VISUAL STUDIO\2019\COMMUNITY\VC\TOOLS\MSVC\14.28.29333\INCLUDE\CSTDLIB
C:\PROGRAM FILES (X86)\WINDOWS KITS\10\INCLUDE\10.0.18362.0\UCRT\MATH.H
C:\PROGRAM FILES (X86)\WINDOWS KITS\10\INCLUDE\10.0.18362.0\UCRT\CORECRT_MATH.H
C:\PROGRAM FILES (X86)\WINDOWS KITS\10\INCLUDE\10.0.18362.0\UCRT\STDLIB.H
C:\PROGRAM FILES (X86)\WINDOWS KITS\10\INCLUDE\10.0.18362.0\UCRT\CORECRT_MALLOC.H
C:\PROGRAM FILES (X86)\WINDOWS KITS\10\INCLUDE\10.0.18362.0\UCRT\CORECRT_SEARCH.H
C:\PROGRAM FILES (X86)\WINDOWS KITS\10\INCLUDE\10.0.18362.0\UCRT\CORECRT_WSTDLIB.H
C:\PROGRAM FILES (X86)\MICROSOFT VISUAL STUDIO\2019\COMMUNITY\VC\TOOLS\MSVC\14.28.29333\INCLUDE\LIMITS.H
C:\PROGRAM FILES (X86)\MICROSOFT VISUAL STUDIO\2019\COMMUNITY\VC\TOOLS\MSVC\14.28.29333\INCLUDE\INITIALIZER_LIST
C:\PROGRAM FILES (X86)\MICROSOFT VISUAL STUDIO\2019\COMMUNITY\VC\TOOLS\MSVC\14.28.29333\INCLUDE\UTILITY
C:\PROGRAM FILES (X86)\WINDOWS KITS\10\INCLUDE\10.0.18362.0\UCRT\ASSERT.H
C:\QT\QT5.12.10\5.12.10\MSVC2017_64\INCLUDE\QTCORE\QCONFIG.H
C:\QT\QT5.12.10\5.12.10\MSVC2017_64\INCLUDE\QTCORE\QTCORE-CONFIG.H
C:\QT\QT5.12.10\5.12.10\MSVC2017_64\INCLUDE\QTCORE\QSYSTEMDETECTION.H
C:\QT\QT5.12.10\5.12.10\MSVC2017_64\INCLUDE\QTCORE\QPROCESSORDETECTION.H
C:\QT\QT5.12.10\5.12.10\MSVC2017_64\INCLUDE\QTCORE\QCOMPILERDETECTION.H
C:\PROGRAM FILES (X86)\MICROSOFT VISUAL STUDIO\2019\COMMUNITY\VC\TOOLS\MSVC\14.28.29333\INCLUDE\ALGORITHM
C:\PROGRAM FILES (X86)\MICROSOFT VISUAL STUDIO\2019\COMMUNITY\VC\TOOLS\MSVC\14.28.29333\INCLUDE\XMEMORY
C:\PROGRAM FILES (X86)\MICROSOFT VISUAL STUDIO\2019\COMMUNITY\VC\TOOLS\MSVC\14.28.29333\INCLUDE\CSTDINT
C:\PROGRAM FILES (X86)\MICROSOFT VISUAL STUDIO\2019\COMMUNITY\VC\TOOLS\MSVC\14.28.29333\INCLUDE\YVALS.H
C:\PROGRAM FILES (X86)\WINDOWS KITS\10\INCLUDE\10.0.18362.0\UCRT\CRTDBG.H
C:\PROGRAM FILES (X86)\MICROSOFT VISUAL STUDIO\2019\COMMUNITY\VC\TOOLS\MSVC\14.28.29333\INCLUDE\VCRUNTIME_NEW_DEBUG.H
C:\PROGRAM FILES (X86)\MICROSOFT VISUAL STUDIO\2019\COMMUNITY\VC\TOOLS\MSVC\14.28.29333\INCLUDE\VCRUNTIME_NEW.H
C:\PROGRAM FILES (X86)\MICROSOFT VISUAL STUDIO\2019\COMMUNITY\VC\TOOLS\MSVC\14.28.29333\INCLUDE\CRTDEFS.H
C:\PROGRAM FILES (X86)\MICROSOFT VISUAL STUDIO\2019\COMMUNITY\VC\TOOLS\MSVC\14.28.29333\INCLUDE\USE_ANSI.H
C:\PROGRAM FILES (X86)\MICROSOFT VISUAL STUDIO\2019\COMMUNITY\VC\TOOLS\MSVC\14.28.29333\INCLUDE\STDINT.H
C:\PROGRAM FILES (X86)\MICROSOFT VISUAL STUDIO\2019\COMMUNITY\VC\TOOLS\MSVC\14.28.29333\INCLUDE\LIMITS
C:\PROGRAM FILES (X86)\MICROSOFT VISUAL STUDIO\2019\COMMUNITY\VC\TOOLS\MSVC\14.28.29333\INCLUDE\CFLOAT
C:\PROGRAM FILES (X86)\WINDOWS KITS\10\INCLUDE\10.0.18362.0\UCRT\FLOAT.H
C:\PROGRAM FILES (X86)\MICROSOFT VISUAL STUDIO\2019\COMMUNITY\VC\TOOLS\MSVC\14.28.29333\INCLUDE\CLIMITS
C:\PROGRAM FILES (X86)\MICROSOFT VISUAL STUDIO\2019\COMMUNITY\VC\TOOLS\MSVC\14.28.29333\INCLUDE\CWCHAR
C:\PROGRAM FILES (X86)\MICROSOFT VISUAL STUDIO\2019\COMMUNITY\VC\TOOLS\MSVC\14.28.29333\INCLUDE\CSTDIO
C:\PROGRAM FILES (X86)\WINDOWS KITS\10\INCLUDE\10.0.18362.0\UCRT\STDIO.H
C:\PROGRAM FILES (X86)\WINDOWS KITS\10\INCLUDE\10.0.18362.0\UCRT\CORECRT_WSTDIO.H
C:\PROGRAM FILES (X86)\WINDOWS KITS\10\INCLUDE\10.0.18362.0\UCRT\CORECRT_STDIO_CONFIG.H
C:\PROGRAM FILES (X86)\WINDOWS KITS\10\INCLUDE\10.0.18362.0\UCRT\WCHAR.H
C:\PROGRAM FILES (X86)\WINDOWS KITS\10\INCLUDE\10.0.18362.0\UCRT\CORECRT_MEMCPY_S.H
C:\PROGRAM FILES (X86)\WINDOWS KITS\10\INCLUDE\10.0.18362.0\UCRT\ERRNO.H
C:\PROGRAM FILES (X86)\MICROSOFT VISUAL STUDIO\2019\COMMUNITY\VC\TOOLS\MSVC\14.28.29333\INCLUDE\VCRUNTIME_STRING.H
C:\PROGRAM FILES (X86)\WINDOWS KITS\10\INCLUDE\10.0.18362.0\UCRT\CORECRT_WCONIO.H
C:\PROGRAM FILES (X86)\WINDOWS KITS\10\INCLUDE\10.0.18362.0\UCRT\CORECRT_WCTYPE.H
C:\PROGRAM FILES (X86)\WINDOWS KITS\10\INCLUDE\10.0.18362.0\UCRT\CORECRT_WDIRECT.H
C:\PROGRAM FILES (X86)\WINDOWS KITS\10\INCLUDE\10.0.18362.0\UCRT\CORECRT_WIO.H
C:\PROGRAM FILES (X86)\WINDOWS KITS\10\INCLUDE\10.0.18362.0\UCRT\CORECRT_SHARE.H
C:\PROGRAM FILES (X86)\WINDOWS KITS\10\INCLUDE\10.0.18362.0\UCRT\CORECRT_WPROCESS.H
C:\PROGRAM FILES (X86)\WINDOWS KITS\10\INCLUDE\10.0.18362.0\UCRT\CORECRT_WSTRING.H
C:\PROGRAM FILES (X86)\WINDOWS KITS\10\INCLUDE\10.0.18362.0\UCRT\CORECRT_WTIME.H
C:\PROGRAM FILES (X86)\WINDOWS KITS\10\INCLUDE\10.0.18362.0\UCRT\SYS\STAT.H
C:\PROGRAM FILES (X86)\WINDOWS KITS\10\INCLUDE\10.0.18362.0\UCRT\SYS\TYPES.H
C:\PROGRAM FILES (X86)\MICROSOFT VISUAL STUDIO\2019\COMMUNITY\VC\TOOLS\MSVC\14.28.29333\INCLUDE\INTRIN0.H
C:\PROGRAM FILES (X86)\MICROSOFT VISUAL STUDIO\2019\COMMUNITY\VC\TOOLS\MSVC\14.28.29333\INCLUDE\ISA_AVAILABILITY.H
C:\PROGRAM FILES (X86)\MICROSOFT VISUAL STUDIO\2019\COMMUNITY\VC\TOOLS\MSVC\14.28.29333\INCLUDE\NEW
C:\PROGRAM FILES (X86)\MICROSOFT VISUAL STUDIO\2019\COMMUNITY\VC\TOOLS\MSVC\14.28.29333\INCLUDE\EXCEPTION
C:\PROGRAM FILES (X86)\WINDOWS KITS\10\INCLUDE\10.0.18362.0\UCRT\MALLOC.H
C:\PROGRAM FILES (X86)\MICROSOFT VISUAL STUDIO\2019\COMMUNITY\VC\TOOLS\MSVC\14.28.29333\INCLUDE\VCRUNTIME_EXCEPTION.H
C:\PROGRAM FILES (X86)\MICROSOFT VISUAL STUDIO\2019\COMMUNITY\VC\TOOLS\MSVC\14.28.29333\INCLUDE\EH.H
C:\PROGRAM FILES (X86)\WINDOWS KITS\10\INCLUDE\10.0.18362.0\UCRT\CORECRT_TERMINATE.H
C:\PROGRAM FILES (X86)\MICROSOFT VISUAL STUDIO\2019\COMMUNITY\VC\TOOLS\MSVC\14.28.29333\INCLUDE\XATOMIC.H
C:\PROGRAM FILES (X86)\MICROSOFT VISUAL STUDIO\2019\COMMUNITY\VC\TOOLS\MSVC\14.28.29333\INCLUDE\XUTILITY
C:\PROGRAM FILES (X86)\MICROSOFT VISUAL STUDIO\2019\COMMUNITY\VC\TOOLS\MSVC\14.28.29333\INCLUDE\CSTRING
C:\PROGRAM FILES (X86)\WINDOWS KITS\10\INCLUDE\10.0.18362.0\UCRT\STRING.H
C:\PROGRAM FILES (X86)\WINDOWS KITS\10\INCLUDE\10.0.18362.0\UCRT\CORECRT_MEMORY.H
C:\QT\QT5.12.10\5.12.10\MSVC2017_64\INCLUDE\QTCORE\QTYPEINFO.H
C:\QT\QT5.12.10\5.12.10\MSVC2017_64\INCLUDE\QTCORE\QSYSINFO.H
C:\QT\QT5.12.10\5.12.10\MSVC2017_64\INCLUDE\QTCORE\QLOGGING.H
C:\QT\QT5.12.10\5.12.10\MSVC2017_64\INCLUDE\QTCORE\QFLAGS.H
C:\QT\QT5.12.10\5.12.10\MSVC2017_64\INCLUDE\QTCORE\QATOMIC.H
C:\QT\QT5.12.10\5.12.10\MSVC2017_64\INCLUDE\QTCORE\QBASICATOMIC.H
C:\QT\QT5.12.10\5.12.10\MSVC2017_64\INCLUDE\QTCORE\QATOMIC_CXX11.H
C:\QT\QT5.12.10\5.12.10\MSVC2017_64\INCLUDE\QTCORE\QGENERICATOMIC.H
C:\PROGRAM FILES (X86)\MICROSOFT VISUAL STUDIO\2019\COMMUNITY\VC\TOOLS\MSVC\14.28.29333\INCLUDE\ATOMIC
C:\PROGRAM FILES (X86)\MICROSOFT VISUAL STUDIO\2019\COMMUNITY\VC\TOOLS\MSVC\14.28.29333\INCLUDE\XTHREADS.H
C:\PROGRAM FILES (X86)\MICROSOFT VISUAL STUDIO\2019\COMMUNITY\VC\TOOLS\MSVC\14.28.29333\INCLUDE\XTIMEC.H
C:\PROGRAM FILES (X86)\WINDOWS KITS\10\INCLUDE\10.0.18362.0\UCRT\TIME.H
C:\QT\QT5.12.10\5.12.10\MSVC2017_64\INCLUDE\QTCORE\QGLOBALSTATIC.H
C:\QT\QT5.12.10\5.12.10\MSVC2017_64\INCLUDE\QTCORE\QNUMERIC.H
C:\QT\QT5.12.10\5.12.10\MSVC2017_64\INCLUDE\QTCORE\QVERSIONTAGGING.H
C:\QT\QT5.12.10\5.12.10\MSVC2017_64\INCLUDE\QTGUI\QTGUI-CONFIG.H
C:\QT\QT5.12.10\5.12.10\MSVC2017_64\INCLUDE\QTWIDGETS\QTWIDGETS-CONFIG.H
C:\QT\QT5.12.10\5.12.10\MSVC2017_64\INCLUDE\QTGUI\QWINDOWDEFS.H
C:\QT\QT5.12.10\5.12.10\MSVC2017_64\INCLUDE\QTCORE\QOBJECTDEFS.H
C:\QT\QT5.12.10\5.12.10\MSVC2017_64\INCLUDE\QTCORE\QNAMESPACE.H
C:\QT\QT5.12.10\5.12.10\MSVC2017_64\INCLUDE\QTCORE\QOBJECTDEFS_IMPL.H
C:\QT\QT5.12.10\5.12.10\MSVC2017_64\INCLUDE\QTGUI\QWINDOWDEFS_WIN.H
C:\QT\QT5.12.10\5.12.10\MSVC2017_64\INCLUDE\QTCORE\QOBJECT.H
C:\QT\QT5.12.10\5.12.10\MSVC2017_64\INCLUDE\QTCORE\QSTRING.H
C:\QT\QT5.12.10\5.12.10\MSVC2017_64\INCLUDE\QTCORE\QCHAR.H
C:\QT\QT5.12.10\5.12.10\MSVC2017_64\INCLUDE\QTCORE\QBYTEARRAY.H
C:\QT\QT5.12.10\5.12.10\MSVC2017_64\INCLUDE\QTCORE\QREFCOUNT.H
C:\QT\QT5.12.10\5.12.10\MSVC2017_64\INCLUDE\QTCORE\QARRAYDATA.H
C:\PROGRAM FILES (X86)\MICROSOFT VISUAL STUDIO\2019\COMMUNITY\VC\TOOLS\MSVC\14.28.29333\INCLUDE\STDARG.H
C:\PROGRAM FILES (X86)\MICROSOFT VISUAL STUDIO\2019\COMMUNITY\VC\TOOLS\MSVC\14.28.29333\INCLUDE\STRING
C:\PROGRAM FILES (X86)\MICROSOFT VISUAL STUDIO\2019\COMMUNITY\VC\TOOLS\MSVC\14.28.29333\INCLUDE\XSTRING
C:\PROGRAM FILES (X86)\MICROSOFT VISUAL STUDIO\2019\COMMUNITY\VC\TOOLS\MSVC\14.28.29333\INCLUDE\IOSFWD
C:\PROGRAM FILES (X86)\MICROSOFT VISUAL STUDIO\2019\COMMUNITY\VC\TOOLS\MSVC\14.28.29333\INCLUDE\CCTYPE
C:\PROGRAM FILES (X86)\WINDOWS KITS\10\INCLUDE\10.0.18362.0\UCRT\CTYPE.H
C:\PROGRAM FILES (X86)\MICROSOFT VISUAL STUDIO\2019\COMMUNITY\VC\TOOLS\MSVC\14.28.29333\INCLUDE\ITERATOR
C:\QT\QT5.12.10\5.12.10\MSVC2017_64\INCLUDE\QTCORE\QSTRINGLITERAL.H
C:\QT\QT5.12.10\5.12.10\MSVC2017_64\INCLUDE\QTCORE\QSTRINGALGORITHMS.H
C:\QT\QT5.12.10\5.12.10\MSVC2017_64\INCLUDE\QTCORE\QSTRINGVIEW.H
C:\QT\QT5.12.10\5.12.10\MSVC2017_64\INCLUDE\QTCORE\QLIST.H
C:\QT\QT5.12.10\5.12.10\MSVC2017_64\INCLUDE\QTCORE\QALGORITHMS.H
C:\PROGRAM FILES (X86)\MICROSOFT VISUAL STUDIO\2019\COMMUNITY\VC\TOOLS\MSVC\14.28.29333\INCLUDE\INTRIN.H
C:\PROGRAM FILES (X86)\MICROSOFT VISUAL STUDIO\2019\COMMUNITY\VC\TOOLS\MSVC\14.28.29333\INCLUDE\SETJMP.H
C:\PROGRAM FILES (X86)\MICROSOFT VISUAL STUDIO\2019\COMMUNITY\VC\TOOLS\MSVC\14.28.29333\INCLUDE\IMMINTRIN.H
C:\PROGRAM FILES (X86)\MICROSOFT VISUAL STUDIO\2019\COMMUNITY\VC\TOOLS\MSVC\14.28.29333\INCLUDE\WMMINTRIN.H
C:\PROGRAM FILES (X86)\MICROSOFT VISUAL STUDIO\2019\COMMUNITY\VC\TOOLS\MSVC\14.28.29333\INCLUDE\NMMINTRIN.H
C:\PROGRAM FILES (X86)\MICROSOFT VISUAL STUDIO\2019\COMMUNITY\VC\TOOLS\MSVC\14.28.29333\INCLUDE\SMMINTRIN.H
C:\PROGRAM FILES (X86)\MICROSOFT VISUAL STUDIO\2019\COMMUNITY\VC\TOOLS\MSVC\14.28.29333\INCLUDE\TMMINTRIN.H
C:\PROGRAM FILES (X86)\MICROSOFT VISUAL STUDIO\2019\COMMUNITY\VC\TOOLS\MSVC\14.28.29333\INCLUDE\PMMINTRIN.H
C:\PROGRAM FILES (X86)\MICROSOFT VISUAL STUDIO\2019\COMMUNITY\VC\TOOLS\MSVC\14.28.29333\INCLUDE\EMMINTRIN.H
C:\PROGRAM FILES (X86)\MICROSOFT VISUAL STUDIO\2019\COMMUNITY\VC\TOOLS\MSVC\14.28.29333\INCLUDE\XMMINTRIN.H
C:\PROGRAM FILES (X86)\MICROSOFT VISUAL STUDIO\2019\COMMUNITY\VC\TOOLS\MSVC\14.28.29333\INCLUDE\MMINTRIN.H
C:\PROGRAM FILES (X86)\MICROSOFT VISUAL STUDIO\2019\COMMUNITY\VC\TOOLS\MSVC\14.28.29333\INCLUDE\ZMMINTRIN.H
C:\PROGRAM FILES (X86)\MICROSOFT VISUAL STUDIO\2019\COMMUNITY\VC\TOOLS\MSVC\14.28.29333\INCLUDE\AMMINTRIN.H
C:\QT\QT5.12.10\5.12.10\MSVC2017_64\INCLUDE\QTCORE\QITERATOR.H
C:\QT\QT5.12.10\5.12.10\MSVC2017_64\INCLUDE\QTCORE\QHASHFUNCTIONS.H
C:\QT\QT5.12.10\5.12.10\MSVC2017_64\INCLUDE\QTCORE\QPAIR.H
C:\PROGRAM FILES (X86)\MICROSOFT VISUAL STUDIO\2019\COMMUNITY\VC\TOOLS\MSVC\14.28.29333\INCLUDE\NUMERIC
C:\PROGRAM FILES (X86)\MICROSOFT VISUAL STUDIO\2019\COMMUNITY\VC\TOOLS\MSVC\14.28.29333\INCLUDE\LIST
C:\QT\QT5.12.10\5.12.10\MSVC2017_64\INCLUDE\QTCORE\QBYTEARRAYLIST.H
C:\QT\QT5.12.10\5.12.10\MSVC2017_64\INCLUDE\QTCORE\QSTRINGLIST.H
C:\QT\QT5.12.10\5.12.10\MSVC2017_64\INCLUDE\QTCORE\QREGEXP.H
C:\QT\QT5.12.10\5.12.10\MSVC2017_64\INCLUDE\QTCORE\QSTRINGMATCHER.H
C:\QT\QT5.12.10\5.12.10\MSVC2017_64\INCLUDE\QTCORE\QSCOPEDPOINTER.H
C:\QT\QT5.12.10\5.12.10\MSVC2017_64\INCLUDE\QTCORE\QMETATYPE.H
C:\QT\QT5.12.10\5.12.10\MSVC2017_64\INCLUDE\QTCORE\QVARLENGTHARRAY.H
C:\QT\QT5.12.10\5.12.10\MSVC2017_64\INCLUDE\QTCORE\QCONTAINERFWD.H
C:\PROGRAM FILES (X86)\MICROSOFT VISUAL STUDIO\2019\COMMUNITY\VC\TOOLS\MSVC\14.28.29333\INCLUDE\VECTOR
C:\PROGRAM FILES (X86)\MICROSOFT VISUAL STUDIO\2019\COMMUNITY\VC\TOOLS\MSVC\14.28.29333\INCLUDE\MAP
C:\PROGRAM FILES (X86)\MICROSOFT VISUAL STUDIO\2019\COMMUNITY\VC\TOOLS\MSVC\14.28.29333\INCLUDE\TUPLE
C:\PROGRAM FILES (X86)\MICROSOFT VISUAL STUDIO\2019\COMMUNITY\VC\TOOLS\MSVC\14.28.29333\INCLUDE\XTREE
C:\QT\QT5.12.10\5.12.10\MSVC2017_64\INCLUDE\QTCORE\QOBJECT_IMPL.H
C:\PROGRAM FILES (X86)\MICROSOFT VISUAL STUDIO\2019\COMMUNITY\VC\TOOLS\MSVC\14.28.29333\INCLUDE\CHRONO
C:\PROGRAM FILES (X86)\MICROSOFT VISUAL STUDIO\2019\COMMUNITY\VC\TOOLS\MSVC\14.28.29333\INCLUDE\RATIO
C:\QT\QT5.12.10\5.12.10\MSVC2017_64\INCLUDE\QTCORE\QMARGINS.H
C:\QT\QT5.12.10\5.12.10\MSVC2017_64\INCLUDE\QTGUI\QPAINTDEVICE.H
C:\QT\QT5.12.10\5.12.10\MSVC2017_64\INCLUDE\QTCORE\QRECT.H
C:\QT\QT5.12.10\5.12.10\MSVC2017_64\INCLUDE\QTCORE\QSIZE.H
C:\QT\QT5.12.10\5.12.10\MSVC2017_64\INCLUDE\QTCORE\QPOINT.H
C:\QT\QT5.12.10\5.12.10\MSVC2017_64\INCLUDE\QTGUI\QPALETTE.H
C:\QT\QT5.12.10\5.12.10\MSVC2017_64\INCLUDE\QTGUI\QCOLOR.H
C:\QT\QT5.12.10\5.12.10\MSVC2017_64\INCLUDE\QTGUI\QRGB.H
C:\QT\QT5.12.10\5.12.10\MSVC2017_64\INCLUDE\QTGUI\QRGBA64.H
C:\QT\QT5.12.10\5.12.10\MSVC2017_64\INCLUDE\QTGUI\QBRUSH.H
C:\QT\QT5.12.10\5.12.10\MSVC2017_64\INCLUDE\QTCORE\QVECTOR.H
C:\QT\QT5.12.10\5.12.10\MSVC2017_64\INCLUDE\QTGUI\QMATRIX.H
C:\QT\QT5.12.10\5.12.10\MSVC2017_64\INCLUDE\QTGUI\QPOLYGON.H
C:\QT\QT5.12.10\5.12.10\MSVC2017_64\INCLUDE\QTGUI\QREGION.H
C:\QT\QT5.12.10\5.12.10\MSVC2017_64\INCLUDE\QTCORE\QDATASTREAM.H
C:\QT\QT5.12.10\5.12.10\MSVC2017_64\INCLUDE\QTCORE\QIODEVICE.H
C:\QT\QT5.12.10\5.12.10\MSVC2017_64\INCLUDE\QTCORE\QLINE.H
C:\QT\QT5.12.10\5.12.10\MSVC2017_64\INCLUDE\QTGUI\QTRANSFORM.H
C:\QT\QT5.12.10\5.12.10\MSVC2017_64\INCLUDE\QTGUI\QPAINTERPATH.H
C:\QT\QT5.12.10\5.12.10\MSVC2017_64\INCLUDE\QTGUI\QIMAGE.H
C:\QT\QT5.12.10\5.12.10\MSVC2017_64\INCLUDE\QTGUI\QPIXELFORMAT.H
C:\QT\QT5.12.10\5.12.10\MSVC2017_64\INCLUDE\QTGUI\QPIXMAP.H
C:\QT\QT5.12.10\5.12.10\MSVC2017_64\INCLUDE\QTCORE\QSHAREDPOINTER.H
C:\QT\QT5.12.10\5.12.10\MSVC2017_64\INCLUDE\QTCORE\QSHAREDDATA.H
C:\QT\QT5.12.10\5.12.10\MSVC2017_64\INCLUDE\QTCORE\QHASH.H
C:\QT\QT5.12.10\5.12.10\MSVC2017_64\INCLUDE\QTCORE\QSHAREDPOINTER_IMPL.H
C:\QT\QT5.12.10\5.12.10\MSVC2017_64\INCLUDE\QTGUI\QFONT.H
C:\QT\QT5.12.10\5.12.10\MSVC2017_64\INCLUDE\QTGUI\QFONTMETRICS.H
C:\QT\QT5.12.10\5.12.10\MSVC2017_64\INCLUDE\QTGUI\QFONTINFO.H
C:\QT\QT5.12.10\5.12.10\MSVC2017_64\INCLUDE\QTWIDGETS\QSIZEPOLICY.H
C:\QT\QT5.12.10\5.12.10\MSVC2017_64\INCLUDE\QTGUI\QCURSOR.H
C:\QT\QT5.12.10\5.12.10\MSVC2017_64\INCLUDE\QTGUI\QKEYSEQUENCE.H
C:\QT\QT5.12.10\5.12.10\MSVC2017_64\INCLUDE\QTWIDGETS\QTABLEWIDGET.H
C:\QT\QT5.12.10\5.12.10\MSVC2017_64\INCLUDE\QTWIDGETS\QTABLEVIEW.H
C:\QT\QT5.12.10\5.12.10\MSVC2017_64\INCLUDE\QTWIDGETS\QABSTRACTITEMVIEW.H
C:\QT\QT5.12.10\5.12.10\MSVC2017_64\INCLUDE\QTWIDGETS\QABSTRACTSCROLLAREA.H
C:\QT\QT5.12.10\5.12.10\MSVC2017_64\INCLUDE\QTWIDGETS\QFRAME.H
C:\QT\QT5.12.10\5.12.10\MSVC2017_64\INCLUDE\QTCORE\QABSTRACTITEMMODEL.H
C:\QT\QT5.12.10\5.12.10\MSVC2017_64\INCLUDE\QTCORE\QVARIANT.H
C:\QT\QT5.12.10\5.12.10\MSVC2017_64\INCLUDE\QTCORE\QMAP.H
C:\PROGRAM FILES (X86)\MICROSOFT VISUAL STUDIO\2019\COMMUNITY\VC\TOOLS\MSVC\14.28.29333\INCLUDE\FUNCTIONAL
C:\PROGRAM FILES (X86)\MICROSOFT VISUAL STUDIO\2019\COMMUNITY\VC\TOOLS\MSVC\14.28.29333\INCLUDE\TYPEINFO
C:\PROGRAM FILES (X86)\MICROSOFT VISUAL STUDIO\2019\COMMUNITY\VC\TOOLS\MSVC\14.28.29333\INCLUDE\VCRUNTIME_TYPEINFO.H
C:\QT\QT5.12.10\5.12.10\MSVC2017_64\INCLUDE\QTCORE\QITEMSELECTIONMODEL.H
C:\QT\QT5.12.10\5.12.10\MSVC2017_64\INCLUDE\QTCORE\QSET.H
C:\QT\QT5.12.10\5.12.10\MSVC2017_64\INCLUDE\QTWIDGETS\QABSTRACTITEMDELEGATE.H
C:\QT\QT5.12.10\5.12.10\MSVC2017_64\INCLUDE\QTWIDGETS\QSTYLEOPTION.H
C:\QT\QT5.12.10\5.12.10\MSVC2017_64\INCLUDE\QTCORE\QLOCALE.H
C:\QT\QT5.12.10\5.12.10\MSVC2017_64\INCLUDE\QTWIDGETS\QABSTRACTSPINBOX.H
C:\QT\QT5.12.10\5.12.10\MSVC2017_64\INCLUDE\QTGUI\QVALIDATOR.H
C:\QT\QT5.12.10\5.12.10\MSVC2017_64\INCLUDE\QTCORE\QREGULAREXPRESSION.H
C:\QT\QT5.12.10\5.12.10\MSVC2017_64\INCLUDE\QTGUI\QICON.H
C:\QT\QT5.12.10\5.12.10\MSVC2017_64\INCLUDE\QTWIDGETS\QSLIDER.H
C:\QT\QT5.12.10\5.12.10\MSVC2017_64\INCLUDE\QTWIDGETS\QABSTRACTSLIDER.H
C:\QT\QT5.12.10\5.12.10\MSVC2017_64\INCLUDE\QTWIDGETS\QSTYLE.H
C:\QT\QT5.12.10\5.12.10\MSVC2017_64\INCLUDE\QTWIDGETS\QTABBAR.H
C:\QT\QT5.12.10\5.12.10\MSVC2017_64\INCLUDE\QTWIDGETS\QTABWIDGET.H
C:\QT\QT5.12.10\5.12.10\MSVC2017_64\INCLUDE\QTWIDGETS\QRUBBERBAND.H
C:\QT\QT5.12.10\5.12.10\MSVC2017_64\INCLUDE\QTWIDGETS\QLABEL.H
C:\QT\QT5.12.10\5.12.10\MSVC2017_64\INCLUDE\QTWIDGETS\QTEXTEDIT.H
C:\QT\QT5.12.10\5.12.10\MSVC2017_64\INCLUDE\QTGUI\QTEXTDOCUMENT.H
C:\QT\QT5.12.10\5.12.10\MSVC2017_64\INCLUDE\QTCORE\QURL.H
C:\QT\QT5.12.10\5.12.10\MSVC2017_64\INCLUDE\QTGUI\QTEXTOPTION.H
C:\QT\QT5.12.10\5.12.10\MSVC2017_64\INCLUDE\QTGUI\QTEXTCURSOR.H
C:\QT\QT5.12.10\5.12.10\MSVC2017_64\INCLUDE\QTGUI\QTEXTFORMAT.H
C:\QT\QT5.12.10\5.12.10\MSVC2017_64\INCLUDE\QTGUI\QPEN.H
C:\QT\QT5.12.10\5.12.10\MSVC2017_64\INCLUDE\QTWIDGETS\QPUSHBUTTON.H
C:\QT\QT5.12.10\5.12.10\MSVC2017_64\INCLUDE\QTWIDGETS\QABSTRACTBUTTON.H
C:\USERS\PRESE\DESKTOP\TEST\TASKSYSTEM\TASKSYSTEM\DATABASECONNECTION.H
C:\PROGRAM FILES (X86)\MICROSOFT VISUAL STUDIO\2019\COMMUNITY\VC\TOOLS\MSVC\14.28.29333\INCLUDE\IOSTREAM
C:\PROGRAM FILES (X86)\MICROSOFT VISUAL STUDIO\2019\COMMUNITY\VC\TOOLS\MSVC\14.28.29333\INCLUDE\ISTREAM
C:\PROGRAM FILES (X86)\MICROSOFT VISUAL STUDIO\2019\COMMUNITY\VC\TOOLS\MSVC\14.28.29333\INCLUDE\OSTREAM
C:\PROGRAM FILES (X86)\MICROSOFT VISUAL STUDIO\2019\COMMUNITY\VC\TOOLS\MSVC\14.28.29333\INCLUDE\IOS
C:\PROGRAM FILES (X86)\MICROSOFT VISUAL STUDIO\2019\COMMUNITY\VC\TOOLS\MSVC\14.28.29333\INCLUDE\XLOCNUM
C:\PROGRAM FILES (X86)\MICROSOFT VISUAL STUDIO\2019\COMMUNITY\VC\TOOLS\MSVC\14.28.29333\INCLUDE\CMATH
C:\PROGRAM FILES (X86)\MICROSOFT VISUAL STUDIO\2019\COMMUNITY\VC\TOOLS\MSVC\14.28.29333\INCLUDE\STREAMBUF
C:\PROGRAM FILES (X86)\MICROSOFT VISUAL STUDIO\2019\COMMUNITY\VC\TOOLS\MSVC\14.28.29333\INCLUDE\XIOSBASE
C:\PROGRAM FILES (X86)\WINDOWS KITS\10\INCLUDE\10.0.18362.0\UCRT\SHARE.H
C:\PROGRAM FILES (X86)\MICROSOFT VISUAL STUDIO\2019\COMMUNITY\VC\TOOLS\MSVC\14.28.29333\INCLUDE\SYSTEM_ERROR
C:\PROGRAM FILES (X86)\MICROSOFT VISUAL STUDIO\2019\COMMUNITY\VC\TOOLS\MSVC\14.28.29333\INCLUDE\__MSVC_SYSTEM_ERROR_ABI.HPP
C:\PROGRAM FILES (X86)\MICROSOFT VISUAL STUDIO\2019\COMMUNITY\VC\TOOLS\MSVC\14.28.29333\INCLUDE\CERRNO
C:\PROGRAM FILES (X86)\MICROSOFT VISUAL STUDIO\2019\COMMUNITY\VC\TOOLS\MSVC\14.28.29333\INCLUDE\STDEXCEPT
C:\PROGRAM FILES (X86)\MICROSOFT VISUAL STUDIO\2019\COMMUNITY\VC\TOOLS\MSVC\14.28.29333\INCLUDE\XCALL_ONCE.H
C:\PROGRAM FILES (X86)\MICROSOFT VISUAL STUDIO\2019\COMMUNITY\VC\TOOLS\MSVC\14.28.29333\INCLUDE\XERRC.H
C:\PROGRAM FILES (X86)\MICROSOFT VISUAL STUDIO\2019\COMMUNITY\VC\TOOLS\MSVC\14.28.29333\INCLUDE\XLOCALE
C:\PROGRAM FILES (X86)\MICROSOFT VISUAL STUDIO\2019\COMMUNITY\VC\TOOLS\MSVC\14.28.29333\INCLUDE\MEMORY
C:\PROGRAM FILES (X86)\MICROSOFT VISUAL STUDIO\2019\COMMUNITY\VC\TOOLS\MSVC\14.28.29333\INCLUDE\XFACET
C:\PROGRAM FILES (X86)\MICROSOFT VISUAL STUDIO\2019\COMMUNITY\VC\TOOLS\MSVC\14.28.29333\INCLUDE\XLOCINFO
C:\PROGRAM FILES (X86)\MICROSOFT VISUAL STUDIO\2019\COMMUNITY\VC\TOOLS\MSVC\14.28.29333\INCLUDE\XLOCINFO.H
C:\PROGRAM FILES (X86)\WINDOWS KITS\10\INCLUDE\10.0.18362.0\UCRT\LOCALE.H
C:\PROGRAM FILES\POSTGRESQL\13\INCLUDE\LIBPQ-FE.H
C:\PROGRAM FILES\POSTGRESQL\13\INCLUDE\POSTGRES_EXT.H
C:\PROGRAM FILES\POSTGRESQL\13\INCLUDE\PG_CONFIG_EXT.H
C:\USERS\PRESE\DESKTOP\TEST\TASKSYSTEM\TASKSYSTEM\TASK.H
C:\PROGRAM FILES (X86)\MICROSOFT VISUAL STUDIO\2019\COMMUNITY\VC\TOOLS\MSVC\14.28.29333\INCLUDE\CTIME
C:\USERS\PRESE\DESKTOP\TEST\TASKSYSTEM\TASKSYSTEM\WORKER.H
