^C:\USERS\PRESE\DESKTOP\TEST\TASKSYSTEM\TASKSYSTEM\DATABASECONNECTION.CPP|C:\USERS\PRESE\DESKTOP\TEST\TASKSYSTEM\TASKSYSTEM\MYWIDGET.CPP|C:\USERS\PRESE\DESKTOP\TEST\TASKSYSTEM\TASKSYSTEM\TASK.CPP|C:\USERS\PRESE\DESKTOP\TEST\TASKSYSTEM\TASKSYSTEM\TASKSYSTEM.CPP|C:\USERS\PRESE\DESKTOP\TEST\TASKSYSTEM\TASKSYSTEM\WORKER.CPP
C:\USERS\PRESE\DESKTOP\TEST\TASKSYSTEM\TASKSYSTEM\X64\RELEASE\VC142.PDB
C:\USERS\PRESE\DESKTOP\TEST\TASKSYSTEM\TASKSYSTEM\X64\RELEASE\WORKER.OBJ
C:\USERS\PRESE\DESKTOP\TEST\TASKSYSTEM\TASKSYSTEM\X64\RELEASE\TASKSYSTEM.OBJ
C:\USERS\PRESE\DESKTOP\TEST\TASKSYSTEM\TASKSYSTEM\X64\RELEASE\TASK.OBJ
C:\USERS\PRESE\DESKTOP\TEST\TASKSYSTEM\TASKSYSTEM\X64\RELEASE\MYWIDGET.OBJ
C:\USERS\PRESE\DESKTOP\TEST\TASKSYSTEM\TASKSYSTEM\X64\RELEASE\DATABASECONNECTION.OBJ
^C:\USERS\PRESE\DESKTOP\TEST\TASKSYSTEM\TASKSYSTEM\WORKER.CPP
C:\USERS\PRESE\DESKTOP\TEST\TASKSYSTEM\TASKSYSTEM\X64\RELEASE\VC142.PDB
^C:\USERS\PRESE\DESKTOP\TEST\TASKSYSTEM\TASKSYSTEM\DATABASECONNECTION.CPP|C:\USERS\PRESE\DESKTOP\TEST\TASKSYSTEM\TASKSYSTEM\TASK.CPP
C:\USERS\PRESE\DESKTOP\TEST\TASKSYSTEM\TASKSYSTEM\X64\RELEASE\VC142.PDB
C:\USERS\PRESE\DESKTOP\TEST\TASKSYSTEM\TASKSYSTEM\X64\RELEASE\TASK.OBJ
C:\USERS\PRESE\DESKTOP\TEST\TASKSYSTEM\TASKSYSTEM\X64\RELEASE\DATABASECONNECTION.OBJ
^C:\USERS\PRESE\DESKTOP\TEST\TASKSYSTEM\TASKSYSTEM\TASK.CPP
C:\USERS\PRESE\DESKTOP\TEST\TASKSYSTEM\TASKSYSTEM\X64\RELEASE\VC142.PDB
C:\USERS\PRESE\DESKTOP\TEST\TASKSYSTEM\TASKSYSTEM\X64\RELEASE\TASK.OBJ
^C:\USERS\PRESE\DESKTOP\TEST\TASKSYSTEM\TASKSYSTEM\DATABASECONNECTION.CPP|C:\USERS\PRESE\DESKTOP\TEST\TASKSYSTEM\TASKSYSTEM\MYWIDGET.CPP|C:\USERS\PRESE\DESKTOP\TEST\TASKSYSTEM\TASKSYSTEM\TASKSYSTEM.CPP
C:\USERS\PRESE\DESKTOP\TEST\TASKSYSTEM\TASKSYSTEM\X64\RELEASE\VC142.PDB
C:\USERS\PRESE\DESKTOP\TEST\TASKSYSTEM\TASKSYSTEM\X64\RELEASE\TASKSYSTEM.OBJ
C:\USERS\PRESE\DESKTOP\TEST\TASKSYSTEM\TASKSYSTEM\X64\RELEASE\MYWIDGET.OBJ
C:\USERS\PRESE\DESKTOP\TEST\TASKSYSTEM\TASKSYSTEM\X64\RELEASE\DATABASECONNECTION.OBJ
^C:\USERS\PRESE\DESKTOP\TEST\TASKSYSTEM\TASKSYSTEM\DATABASECONNECTION.CPP
C:\USERS\PRESE\DESKTOP\TEST\TASKSYSTEM\TASKSYSTEM\X64\RELEASE\VC142.PDB
C:\USERS\PRESE\DESKTOP\TEST\TASKSYSTEM\TASKSYSTEM\X64\RELEASE\DATABASECONNECTION.OBJ
^C:\USERS\PRESE\DESKTOP\TEST\TASKSYSTEM\TASKSYSTEM\MYWIDGET.CPP|C:\USERS\PRESE\DESKTOP\TEST\TASKSYSTEM\TASKSYSTEM\TASKSYSTEM.CPP
C:\USERS\PRESE\DESKTOP\TEST\TASKSYSTEM\TASKSYSTEM\X64\RELEASE\VC142.PDB
C:\USERS\PRESE\DESKTOP\TEST\TASKSYSTEM\TASKSYSTEM\X64\RELEASE\TASKSYSTEM.OBJ
^C:\USERS\PRESE\DESKTOP\TEST\TASKSYSTEM\TASKSYSTEM\TASKSYSTEM.CPP
C:\USERS\PRESE\DESKTOP\TEST\TASKSYSTEM\TASKSYSTEM\X64\RELEASE\TASKSYSTEM.OBJ
^C:\USERS\PRESE\DESKTOP\TEST\TASKSYSTEM\TASKSYSTEM\MYWIDGET.CPP
C:\USERS\PRESE\DESKTOP\TEST\TASKSYSTEM\TASKSYSTEM\X64\RELEASE\VC142.PDB
C:\USERS\PRESE\DESKTOP\TEST\TASKSYSTEM\TASKSYSTEM\X64\RELEASE\MYWIDGET.OBJ
