^C:\USERS\PRESE\DESKTOP\TEST\TASKSYSTEM\TASKSYSTEM\X64\RELEASE\DATABASECONNECTION.OBJ|C:\USERS\PRESE\DESKTOP\TEST\TASKSYSTEM\TASKSYSTEM\X64\RELEASE\MYWIDGET.OBJ|C:\USERS\PRESE\DESKTOP\TEST\TASKSYSTEM\TASKSYSTEM\X64\RELEASE\TASK.OBJ|C:\USERS\PRESE\DESKTOP\TEST\TASKSYSTEM\TASKSYSTEM\X64\RELEASE\TASKSYSTEM.OBJ|C:\USERS\PRESE\DESKTOP\TEST\TASKSYSTEM\TASKSYSTEM\X64\RELEASE\WORKER.OBJ
/OUT:"C:\USERS\PRESE\DESKTOP\TEST\TASKSYSTEM\X64\RELEASE\TASKSYSTEM.EXE" /INCREMENTAL:NO /NOLOGO KERNEL32.LIB USER32.LIB GDI32.LIB WINSPOOL.LIB COMDLG32.LIB ADVAPI32.LIB SHELL32.LIB OLE32.LIB OLEAUT32.LIB UUID.LIB ODBC32.LIB ODBCCP32.LIB /MANIFEST /MANIFESTUAC:"level='asInvoker' uiAccess='false'" /manifest:embed /DEBUG /PDB:"C:\USERS\PRESE\DESKTOP\TEST\TASKSYSTEM\X64\RELEASE\TASKSYSTEM.PDB" /SUBSYSTEM:CONSOLE /OPT:REF /OPT:ICF /LTCG:incremental /TLBID:1 /DYNAMICBASE /NXCOMPAT /IMPLIB:"C:\USERS\PRESE\DESKTOP\TEST\TASKSYSTEM\X64\RELEASE\TASKSYSTEM.LIB" /MACHINE:X64 X64\RELEASE\DATABASECONNECTION.OBJ
X64\RELEASE\MYWIDGET.OBJ
X64\RELEASE\TASK.OBJ
X64\RELEASE\TASKSYSTEM.OBJ
X64\RELEASE\WORKER.OBJ
