^C:\USERS\PRESE\DESKTOP\NEURAL\NEURAL\NEURAL\X64\DEBUG\MAINWINDOW.OBJ|C:\USERS\PRESE\DESKTOP\NEURAL\NEURAL\NEURAL\X64\DEBUG\NEURAL.OBJ|C:\USERS\PRESE\DESKTOP\NEURAL\NEURAL\NEURAL\X64\DEBUG\NEURALNET.OBJ|C:\USERS\PRESE\DESKTOP\NEURAL\NEURAL\NEURAL\X64\DEBUG\NEURON.OBJ
C:\USERS\PRESE\DESKTOP\NEURAL\NEURAL\X64\DEBUG\NEURAL.EXE
C:\USERS\PRESE\DESKTOP\NEURAL\NEURAL\X64\DEBUG\NEURAL.ILK
C:\USERS\PRESE\DESKTOP\NEURAL\NEURAL\X64\DEBUG\NEURAL.PDB
